<?xml version="1.0" encoding="UTF-8" standalone="no"?>
<!-- Created with Inkscape (http://www.inkscape.org/) -->

<svg
   xmlns:osb="http://www.openswatchbook.org/uri/2009/osb"
   xmlns:dc="http://purl.org/dc/elements/1.1/"
   xmlns:cc="http://creativecommons.org/ns#"
   xmlns:rdf="http://www.w3.org/1999/02/22-rdf-syntax-ns#"
   xmlns:svg="http://www.w3.org/2000/svg"
   xmlns="http://www.w3.org/2000/svg"
   xmlns:xlink="http://www.w3.org/1999/xlink"
   xmlns:sodipodi="http://sodipodi.sourceforge.net/DTD/sodipodi-0.dtd"
   xmlns:inkscape="http://www.inkscape.org/namespaces/inkscape"
   width="210mm"
   height="297mm"
   viewBox="0 0 210 297"
   version="1.1"
   id="svg829"
   sodipodi:docname="award - i forgot i had this copy.svg"
   inkscape:version="0.92.2 5c3e80d, 2017-08-06">
  <defs
     id="defs823">
    <inkscape:perspective
       sodipodi:type="inkscape:persp3d"
       inkscape:vp_x="0 : 148.5 : 1"
       inkscape:vp_y="0 : 1000 : 0"
       inkscape:vp_z="210 : 148.5 : 1"
       inkscape:persp3d-origin="105 : 99 : 1"
       id="perspective3277" />
    <linearGradient
       id="linearGradient3224"
       osb:paint="solid">
      <stop
         style="stop-color:#808000;stop-opacity:1;"
         offset="0"
         id="stop3222" />
    </linearGradient>
    <linearGradient
       inkscape:collect="always"
       id="linearGradient3179">
      <stop
         style="stop-color:#000000;stop-opacity:1;"
         offset="0"
         id="stop3175" />
      <stop
         style="stop-color:#000000;stop-opacity:0;"
         offset="1"
         id="stop3177" />
    </linearGradient>
    <radialGradient
       inkscape:collect="always"
       xlink:href="#linearGradient3179"
       id="radialGradient3183"
       cx="65.767632"
       cy="232.44125"
       fx="65.767632"
       fy="232.44125"
       r="328.08322"
       gradientTransform="matrix(1,0,0,0.13750011,0,200.48055)"
       gradientUnits="userSpaceOnUse" />
    <linearGradient
       inkscape:collect="always"
       xlink:href="#linearGradient3179"
       id="linearGradient3191"
       x1="-262.44788"
       y1="232.44125"
       x2="393.98315"
       y2="232.44125"
       gradientUnits="userSpaceOnUse" />
    <marker
       style="overflow:visible"
       refY="0.0"
       refX="0.0"
       orient="auto"
       id="DistanceX">
      <path
         id="path4"
         style="stroke:#000000; stroke-width:0.5"
         d="M 3,-3 L -3,3 M 0,-5 L  0,5" />
    </marker>
    <pattern
       y="0"
       x="0"
       width="8"
       patternUnits="userSpaceOnUse"
       id="Hatch"
       height="8">
      <path
         id="path7"
         stroke-width="0.25"
         stroke="#000000"
         linecap="square"
         d="M8 4 l-4,4" />
      <path
         id="path9"
         stroke-width="0.25"
         stroke="#000000"
         linecap="square"
         d="M6 2 l-4,4" />
      <path
         id="path11"
         stroke-width="0.25"
         stroke="#000000"
         linecap="square"
         d="M4 0 l-4,4" />
    </pattern>
    <symbol
       id="*MODEL_SPACE" />
    <symbol
       id="*PAPER_SPACE" />
    <marker
       style="overflow:visible"
       refY="0.0"
       refX="0.0"
       orient="auto"
       id="DistanceX-4">
      <path
         id="path7836"
         style="stroke:#000000; stroke-width:0.5"
         d="M 3,-3 L -3,3 M 0,-5 L  0,5" />
    </marker>
    <pattern
       y="0"
       x="0"
       width="8"
       patternUnits="userSpaceOnUse"
       id="Hatch-9"
       height="8">
      <path
         id="path7839"
         stroke-width="0.25"
         stroke="#000000"
         linecap="square"
         d="M8 4 l-4,4" />
      <path
         id="path7841"
         stroke-width="0.25"
         stroke="#000000"
         linecap="square"
         d="M6 2 l-4,4" />
      <path
         id="path7843"
         stroke-width="0.25"
         stroke="#000000"
         linecap="square"
         d="M4 0 l-4,4" />
    </pattern>
    <symbol
       id="*MODEL_SPACE-7" />
    <symbol
       id="*PAPER_SPACE-3" />
  </defs>
  <sodipodi:namedview
     id="base"
     pagecolor="#ffffff"
     bordercolor="#666666"
     borderopacity="1.0"
     inkscape:pageopacity="0.0"
     inkscape:pageshadow="2"
     inkscape:zoom="1.4142136"
     inkscape:cx="274.2142"
     inkscape:cy="579.12042"
     inkscape:document-units="mm"
     inkscape:current-layer="layer1"
     showgrid="false"
     inkscape:window-width="1440"
     inkscape:window-height="855"
     inkscape:window-x="0"
     inkscape:window-y="1"
     inkscape:window-maximized="1"
     inkscape:measure-start="0,0"
     inkscape:measure-end="0,0" />
  <metadata
     id="metadata826">
    <rdf:RDF>
      <cc:Work
         rdf:about="">
        <dc:format>image/svg+xml</dc:format>
        <dc:type
           rdf:resource="http://purl.org/dc/dcmitype/StillImage" />
        <dc:title />
      </cc:Work>
    </rdf:RDF>
  </metadata>
  <g
     inkscape:label="Layer 1"
     inkscape:groupmode="layer"
     id="layer1">
    <g
       id="g874"
       inkscape:label="0"
       transform="matrix(0.04979469,0,0,0.04979284,114.69668,72.964032)"
       style="stroke-width:2.00828359;stroke-miterlimit:4;stroke-dasharray:none;stroke:#000000;stroke-opacity:1;fill:none">
      <path
         id="path7689"
         style="fill:none;fill-opacity:1;stroke:#000000;stroke-width:2.00828359;stroke-linejoin:round;stroke-miterlimit:4;stroke-dasharray:none;stroke-opacity:1"
         d="M 272.50287,1234.2819 A 321.45723,321.45723 0 0 1 -48.954365,1555.739 321.45723,321.45723 0 0 1 -370.41159,1234.2819 321.45723,321.45723 0 0 1 -48.954365,912.82385 321.45723,321.45723 0 0 1 272.50287,1234.2819 Z m -507.33545,-176.6272 c -0.002,3.3065 1.76099,6.3627 4.62417,8.0164 2.86318,1.6539 6.39132,1.6539 9.25449,0 2.86318,-1.6537 4.62607,-4.7099 4.62415,-8.0164 0.002,-3.3065 -1.76097,-6.3627 -4.62415,-8.0165 -2.86317,-1.6538 -6.39131,-1.6538 -9.25449,0 -2.86318,1.6538 -4.62608,4.71 -4.62417,8.0165 z m 18.505,16.0303 c 5.7259,-3.3069 9.25193,-9.418 9.24922,-16.0303 0.002,-6.6123 -3.52332,-12.7234 -9.24922,-16.0303 -5.72589,-3.307 -12.78128,-3.307 -18.50718,0 -5.7259,3.3069 -9.25192,9.418 -9.24922,16.0303 -0.002,6.6123 3.52332,12.7234 9.24922,16.0303 5.7259,3.3069 12.78129,3.3069 18.50718,0 z m 307.833497,292.6323 c -1.908264,-1.1017 -4.259352,-1.1017 -6.167616,0 -1.908257,1.1018 -3.083801,3.1378 -3.083801,5.3414 0,2.2034 1.175544,4.2395 3.083801,5.3412 1.908264,1.1018 4.259352,1.1018 6.167616,0 1.908256,-1.1017 3.0838,-3.1378 3.0838,-5.3412 0,-2.2036 -1.175544,-4.2396 -3.0838,-5.3414 z m 26.912993,28.5616 c -5.72591,3.3068 -9.25193,9.418 -9.24922,16.0301 -0.002,6.6123 3.52331,12.7235 9.24922,16.0302 5.72589,3.3069 12.78127,3.3069 18.50716,0 5.7259,-3.3067 9.25193,-9.4179 9.24921,-16.0302 0.002,-6.6121 -3.52331,-12.7233 -9.24921,-16.0301 -5.72589,-3.3069 -12.78127,-3.3069 -18.50716,0 z m 13.88083,8.0137 c -2.86319,-1.6537 -6.39132,-1.6537 -9.25448,0 -2.8632,1.6538 -4.62609,4.71 -4.62417,8.0164 -0.002,3.3065 1.76097,6.3627 4.62417,8.0164 2.86316,1.6538 6.39129,1.6538 9.25448,0 2.86316,-1.6537 4.62607,-4.7099 4.62415,-8.0164 0.002,-3.3064 -1.76099,-6.3626 -4.62415,-8.0164 z m -23.13005,-345.2379 c -0.002,6.6123 3.52331,12.7234 9.24922,16.0303 5.72589,3.3069 12.78127,3.3069 18.50716,0 5.7259,-3.3069 9.25193,-9.418 9.24921,-16.0303 0.002,-6.6123 -3.52331,-12.7234 -9.24921,-16.0303 -5.72589,-3.307 -12.78127,-3.307 -18.50716,0 -5.72591,3.3069 -9.25193,9.418 -9.24922,16.0303 z m -301.66808,49.9333 c 3.81653,2.2035 8.51868,2.2035 12.33522,0 3.81653,-2.2036 6.16761,-6.2758 6.16761,-10.6827 0,-4.407 -2.35108,-8.4792 -6.16761,-10.6827 -3.81654,-2.2035 -8.51869,-2.2035 -12.33522,0 -3.81652,2.2035 -6.1676,6.2757 -6.1676,10.6827 0,4.4069 2.35108,8.4791 6.1676,10.6827 z m 287.088107,221.9555 v 24.6706 c 7.750763,2.7403 12.763973,10.2659 12.306543,18.474 l 11.91817,11.9182 c 12.21379,-4.1132 25.65211,0.7225 32.4446,11.675 6.79248,10.9525 5.1517,25.1399 -3.96135,34.253 -9.11307,9.1129 -23.30041,10.7538 -34.25293,3.9613 -10.95255,-6.7925 -15.788217,-20.2309 -11.67494,-32.4446 l -11.918173,-11.9182 c -8.208193,0.4574 -15.733833,-4.5558 -18.474145,-12.3065 H 46.30704 v -24.6705 l 8.22348,12.3352 h 16.446972 c 1.862952,-5.2692 6.007792,-9.4141 11.277008,-11.2769 v -16.4471 l -12.335216,-8.2235 h 24.670433 v 4.1118 z m 37.710023,-279.9053 c -2.86319,-1.6538 -6.39132,-1.6538 -9.25448,0 -2.8632,1.6538 -4.62609,4.71 -4.62417,8.0165 -0.002,3.3065 1.76097,6.3627 4.62417,8.0164 2.86316,1.6539 6.39129,1.6539 9.25448,0 2.86316,-1.6537 4.62607,-4.7099 4.62415,-8.0164 0.002,-3.3065 -1.76099,-6.3627 -4.62415,-8.0165 z m -172.806465,173.1023 h -10.47131 v -41.8855 h 10.47131 z m -161.323425,-26.1784 h 10.47131 v 26.1784 h -10.47131 z m -19.12377,206.3305 c -2.86317,-1.6537 -6.39131,-1.6537 -9.25449,0 -2.86318,1.6538 -4.62608,4.71 -4.62417,8.0164 -0.002,3.3065 1.76099,6.3627 4.62417,8.0164 2.86318,1.6538 6.39132,1.6538 9.25449,0 2.86318,-1.6537 4.62607,-4.7099 4.62415,-8.0164 0.002,-3.3064 -1.76097,-6.3626 -4.62415,-8.0164 z M 58.643412,1180.855 v 36.6498 l -10.471304,-10.4713 v -26.1785 z m -238.806582,180.121 c -3.81654,-2.2034 -8.51869,-2.2034 -12.33522,0 -3.81652,2.2035 -6.1676,6.2757 -6.1676,10.6827 0,4.4069 2.35108,8.4791 6.1676,10.6825 3.81653,2.2036 8.51868,2.2036 12.33522,0 3.81653,-2.2034 6.16761,-6.2756 6.16761,-10.6825 0,-4.407 -2.35108,-8.4792 -6.16761,-10.6827 z M 1.0512624,1222.7405 v -36.6499 l 10.4712946,10.4715 v 26.1784 z M -191.35884,1264.424 v 10.4713 h -20.94257 v -10.4713 z m 8.11186,112.5759 c 1.90826,-1.1017 3.08381,-3.1378 3.08381,-5.3412 0,-2.2036 -1.17555,-4.2396 -3.08381,-5.3414 -1.90826,-1.1017 -4.25934,-1.1017 -6.1676,0 -1.90826,1.1018 -3.08381,3.1378 -3.08381,5.3414 0,2.2034 1.17555,4.2395 3.08381,5.3412 1.90826,1.1018 4.25934,1.1018 6.1676,0 z m -44.76138,-86.3977 v -31.4138 l 10.4713,-10.4713 h 41.88516 v 10.4713 h -41.88516 v 20.9425 h 41.88518 l -10.4713,10.4713 z m 213.679897,-99.2757 10.4712944,-10.4715 v 41.8855 H -14.328463 v -15.707 H -35.27107 v -10.4714 h 20.942607 z m -140.708067,99.2757 h -15.70695 l 41.88516,-41.8851 h 15.70693 z m -15.70695,-5.2356 v -36.6495 h 10.47132 v 26.1782 z M 32.465148,1264.424 h 10.471316 v 26.1782 H 32.465148 Z m -276.549128,146.485 c -0.002,6.6123 3.52332,12.7235 9.24922,16.0302 5.7259,3.3069 12.78129,3.3069 18.50718,0 5.7259,-3.3067 9.25193,-9.4179 9.24922,-16.0302 0.002,-6.6121 -3.52332,-12.7233 -9.24922,-16.0301 -5.72589,-3.3069 -12.78128,-3.3069 -18.50718,0 -5.7259,3.3068 -9.25192,9.418 -9.24922,16.0301 z m 151.54796,-136.0137 v -10.4713 h 20.94261 v 10.4713 z m 187.501753,5.2356 10.471287,10.4713 H 68.7875 l -8e-6,-10.4713 z m -239.181473,97.6954 h -24.67042 c -2.74031,7.7507 -10.26597,12.7639 -18.47416,12.3065 l -11.91817,11.9182 c 4.1133,12.2137 -0.72238,25.6521 -11.67492,32.4446 -10.95254,6.7925 -25.13989,5.1516 -34.25296,-3.9613 -9.11307,-9.1131 -10.75383,-23.3005 -3.96135,-34.253 6.79249,-10.9525 20.23082,-15.7882 32.44462,-11.675 l 11.91819,-11.9182 c -0.45744,-8.2081 4.55579,-15.7337 12.30652,-18.474 v -24.6706 h 24.67043 l -12.33521,8.2235 v 16.4471 c 5.26922,1.8628 9.41405,6.0077 11.27701,11.2769 h 16.44695 l 8.22347,-12.3352 v 24.6705 h -4.11174 z M -40.506715,1264.424 v 26.1782 h -10.47131 v -36.6495 z m -15.379735,-15.7069 v 10.4713 h -41.885225 v 20.9425 h 41.885225 l -10.47131,10.4713 h -41.8852 v -31.4138 l 10.471285,-10.4713 z m 119.438266,-25.9766 v -41.8855 l 10.471308,10.4715 v 20.9426 H 105.437 l 10.47129,10.4714 z m -114.529841,25.9766 h 15.706965 l 41.8851942,41.8851 H -9.0928073 Z m 57.5921592,0 v 36.6495 l -10.4712868,-10.4713 v -26.1782 z M 151.25903,1072.2825 c 6.79248,-10.9526 5.1517,-25.14 -3.96135,-34.2531 -9.11307,-9.1132 -23.30041,-10.754 -34.25293,-3.9614 -10.95255,6.7925 -15.788217,20.231 -11.67494,32.4448 l -11.918173,11.9182 c -8.208193,-0.4574 -15.733833,4.5559 -18.474145,12.3067 H 46.30704 v 24.6705 l 8.22348,-12.3353 h 16.446972 c 1.862952,5.2693 6.007792,9.4141 11.277008,11.2771 v 16.447 l -12.335216,8.2234 v 0 H 94.589717 V 1114.35 c 7.750763,-2.7402 12.763973,-10.2661 12.306543,-18.4742 l 11.91817,-11.9183 c 12.21379,4.1133 25.65211,-0.7224 32.4446,-11.675 z m -301.05992,124.2796 h 20.94257 v 10.4714 h -20.94257 z m 234.295343,52.155 41.885167,41.8851 H 110.67269 L 68.7875,1248.7171 Z m -239.530983,-36.448 h 41.88515 l -10.47128,10.4714 h -41.88518 v -31.414 l 10.47131,-10.4715 h 41.88515 v 10.4715 h -41.88515 z m -37.46186,-115.3638 c 0,2.2035 1.17555,4.2396 3.08381,5.3413 1.90826,1.1017 4.25934,1.1017 6.1676,0 1.90826,-1.1017 3.08381,-3.1378 3.08381,-5.3413 0,-2.2035 -1.17555,-4.2396 -3.08381,-5.3414 -1.90826,-1.1017 -4.25934,-1.1017 -6.1676,0 -1.90826,1.1018 -3.08381,3.1379 -3.08381,5.3414 z m 282.228491,151.8118 h 36.649519 v 10.4713 H 100.2014 Z M 1.0512624,1180.855 H 16.758197 l 41.885215,41.8855 H 42.936464 Z m 84.2870386,-89.2911 c -1.908257,1.1018 -3.083801,3.1379 -3.083801,5.3414 0,2.2035 1.175544,4.2396 3.083801,5.3413 1.908264,1.1017 4.259352,1.1017 6.167616,0 1.908256,-1.1017 3.0838,-3.1378 3.0838,-5.3413 0,-2.2035 -1.175544,-4.2396 -3.0838,-5.3414 -1.908264,-1.1017 -4.259352,-1.1017 -6.167616,0 z M 63.879064,1259.1884 H 11.522557 l 10.471295,-10.4713 h 41.885212 z m -234.295324,-67.8619 h -52.35646 l 10.47131,-10.4715 h 41.88515 z M 94.589717,1107.588 c 3.816528,-2.2036 6.167603,-6.2758 6.167603,-10.6827 0,-4.407 -2.351075,-8.4792 -6.167603,-10.6827 -3.81652,-2.2035 -8.518688,-2.2035 -12.335217,0 -3.816536,2.2035 -6.167608,6.2757 -6.167608,10.6827 0,4.4069 2.351072,8.4791 6.167608,10.6827 3.816529,2.2035 8.518697,2.2035 12.335217,0 z m -247.028927,-4.5151 8.22347,12.3353 v -24.6705 h -24.67042 c -2.74031,-7.7508 -10.26597,-12.7641 -18.47416,-12.3067 l -11.91817,-11.9182 c 4.1133,-12.2138 -0.72238,-25.6523 -11.67492,-32.4448 -10.95254,-6.7926 -25.13989,-5.1518 -34.25296,3.9614 -9.11307,9.1131 -10.75383,23.3005 -3.96135,34.2531 6.79249,10.9526 20.23082,15.7883 32.44462,11.675 l 11.91819,11.9183 c -0.45744,8.2081 4.55579,15.734 12.30652,18.4742 v 24.6704 h 24.67043 l -12.33521,-8.2234 v -16.447 c 5.26922,-1.863 9.41405,-6.0078 11.27701,-11.2771 z m 231.697974,88.2536 -10.47128,-10.4715 h 41.885186 l 10.47128,10.4715 v 31.414 l -10.47128,-10.4714 v -20.9426 z m 17.861809,295.9649 C 187.51196,1435.1038 243.19538,1338.6573 243.19538,1234.2823 m -438.22462,253.0091 c 90.3914,52.1874 201.7583341,52.1874 292.149813,0 M -341.1041,1234.2823 c 0,104.375 55.68343,200.8215 146.07486,253.0091 m 0,-506.01928 C -285.42067,1033.4598 -341.1041,1129.9069 -341.1041,1234.2823 M 97.120573,981.27212 C 53.705496,956.20641 5.4516142,943.1799 -42.992895,942.1923 c -52.41843,-1.0685 -105.059975,11.95804 -152.036345,39.07982 m 438.22462,253.01018 c 0,-53.6509 -14.71241,-105.207 -41.28852,-149.7342 -25.12651,-42.0985 -60.85776,-77.9137 -104.786287,-103.27598 m -153.007023,210.05438 -10.47131,10.4713 v -10.4713 h -31.413915 v 20.9426 h 41.885225 v 10.4714 h -41.885225 l -10.471285,-10.4714 v -31.4141 h 52.35651 z M 82.2545,1382.3412 c 3.816529,2.2036 8.518697,2.2036 12.335217,0 3.816528,-2.2034 6.167603,-6.2756 6.167603,-10.6825 0,-4.407 -2.351075,-8.4792 -6.167603,-10.6827 -3.81652,-2.2034 -8.518688,-2.2034 -12.335217,0 -3.816536,2.2035 -6.167608,6.2757 -6.167608,10.6827 0,4.4069 2.351072,8.4791 6.167608,10.6825 z"
         inkscape:connector-curvature="0" />
    </g>
    <g
       aria-label="I Forgot I Had This"
       transform="scale(0.99997548,1.0000245)"
       style="font-style:normal;font-variant:normal;font-weight:normal;font-stretch:condensed;font-size:16.13430023px;line-height:1;font-family:'Agency FB';-inkscape-font-specification:'Agency FB, Condensed';font-variant-ligatures:normal;font-variant-caps:normal;font-variant-numeric:normal;font-feature-settings:normal;text-align:center;letter-spacing:0px;word-spacing:0px;writing-mode:lr-tb;text-anchor:middle;fill:#000000;fill-opacity:1;stroke:none;stroke-width:0.1;stroke-miterlimit:4;stroke-dasharray:none"
       id="text45">
      <path
         d="M 37.448752,106.94386 H 36.353699 V 94.614674 h 1.095053 z"
         style="stroke-width:0.1;stroke:#000000;stroke-opacity:1;fill:none;stroke-miterlimit:4;stroke-dasharray:none"
         id="path53" />
      <path
         d="m 46.626711,95.583677 h -2.875498 v 4.679573 h 2.647033 v 0.98476 h -2.647033 v 5.69585 H 42.65616 V 94.614674 h 3.970551 z"
         style="stroke-width:0.1;stroke:#000000;stroke-opacity:1;fill:none;stroke-miterlimit:4;stroke-dasharray:none"
         id="path55" />
      <path
         d="m 52.417097,106.05364 q 0,0.89022 -0.890223,0.89022 h -2.631277 q -0.882345,0 -0.882345,-0.89022 v -5.88492 q 0,-0.890225 0.882345,-0.890225 h 2.631277 q 0.890223,0 0.890223,0.890225 z m -1.047784,-0.0315 v -5.8219 h -2.308276 v 5.8219 z"
         style="stroke-width:0.1;stroke:#000000;stroke-opacity:1;fill:none;stroke-miterlimit:4;stroke-dasharray:none"
         id="path57" />
      <path
         d="m 58.136579,101.79948 h -1.032028 v -1.58349 l -1.930128,0.063 v 6.66485 h -1.047784 v -7.665365 h 1.047784 v 0.212708 q 0.519953,-0.07878 1.047784,-0.16544 0.630246,-0.09454 1.047784,-0.09454 0.866588,0 0.866588,0.858714 z"
         style="stroke-width:0.1;stroke:#000000;stroke-opacity:1;fill:none;stroke-miterlimit:4;stroke-dasharray:none"
         id="path59" />
      <path
         d="m 63.840307,108.96065 q 0,0.89022 -0.890223,0.89022 h -2.489472 q -0.905979,0 -0.905979,-1.12656 0,-0.13393 0.0079,-0.40178 0.01576,-0.25998 0.01576,-0.37815 h 1.032028 v 1.01627 h 2.190106 v -2.01679 h -1.725299 q -0.701149,0 -1.165955,-0.4648 -0.464807,-0.47269 -0.464807,-1.18172 v -4.48262 q 0,-0.67751 0.40966,-1.126565 0.40966,-0.456929 1.079297,-0.456929 0.181195,0 1.867104,0.259977 v -0.212708 h 1.039906 z m -1.039906,-2.93852 v -5.79039 q -1.244736,-0.0788 -1.449566,-0.0788 -0.866589,0 -0.866589,0.88235 v 4.10447 q 0,0.88235 0.866589,0.88235 z"
         style="stroke-width:0.1;stroke:#000000;stroke-opacity:1;fill:none;stroke-miterlimit:4;stroke-dasharray:none"
         id="path61" />
      <path
         d="m 69.96945,106.05364 q 0,0.89022 -0.890223,0.89022 H 66.44795 q -0.882345,0 -0.882345,-0.89022 v -5.88492 q 0,-0.890225 0.882345,-0.890225 h 2.631277 q 0.890223,0 0.890223,0.890225 z m -1.047784,-0.0315 v -5.8219 H 66.61339 v 5.8219 z"
         style="stroke-width:0.1;stroke:#000000;stroke-opacity:1;fill:none;stroke-miterlimit:4;stroke-dasharray:none"
         id="path63" />
      <path
         d="m 74.436318,106.94386 h -1.488956 q -0.882345,0 -0.882345,-0.89022 v -5.85341 h -0.921735 v -0.921735 h 0.921735 v -2.387057 h 1.032028 v 2.387057 h 1.339273 v 0.921735 h -1.339273 v 5.8219 h 1.339273 z"
         style="stroke-width:0.1;fill:none;stroke:#000000;stroke-opacity:1;stroke-miterlimit:4;stroke-dasharray:none"
         id="path65" />
      <path
         d="M 80.210951,106.94386 H 79.115899 V 94.614674 h 1.095052 z"
         style="stroke-width:0.1;stroke:#000000;stroke-opacity:1;fill:none;stroke-miterlimit:4;stroke-dasharray:none"
         id="path67" />
      <path
         d="m 90.578496,106.94386 h -1.095052 v -5.92431 h -2.970035 v 5.92431 H 85.418356 V 94.614674 h 1.095053 v 5.420116 h 2.970035 v -5.420116 h 1.095052 z"
         style="stroke-width:0.1;stroke:#000000;stroke-opacity:1;fill:none;stroke-miterlimit:4;stroke-dasharray:none"
         id="path69" />
      <path
         d="m 96.747033,106.94386 h -1.032028 v -0.21271 q -0.622368,0.0867 -1.244736,0.16544 -0.772051,0.0945 -1.236858,0.0945 -0.85871,0 -0.85871,-0.85083 v -2.79672 q 0,-0.88234 0.890223,-0.88234 h 2.465837 v -2.30828 h -2.253129 v 1.30776 H 92.46136 v -1.292 q 0,-0.890225 0.882344,-0.890225 h 2.520985 q 0.882344,0 0.882344,0.890225 z m -1.016272,-0.95324 v -2.71006 h -2.339788 v 2.75732 z"
         style="stroke-width:0.1;stroke:#000000;stroke-opacity:1;fill:none;stroke-miterlimit:4;stroke-dasharray:none"
         id="path71" />
      <path
         d="m 102.82103,106.94386 h -1.03991 v -0.21271 q -1.68591,0.25998 -1.867101,0.25998 -0.669637,0 -1.079296,-0.44905 -0.40966,-0.45693 -0.40966,-1.13444 v -4.48263 q 0,-0.70902 0.464806,-1.173831 0.464807,-0.472684 1.165951,-0.472684 h 1.7253 v -4.663821 h 1.03991 z m -1.03991,-0.95324 v -5.79039 h -1.44956 q -0.866591,0 -0.866591,0.89022 v 4.0966 q 0,0.88235 0.866591,0.88235 0.20483,0 1.44956,-0.0788 z"
         style="stroke-width:0.1;stroke:#000000;stroke-opacity:1;fill:none;stroke-miterlimit:4;stroke-dasharray:none"
         id="path73" />
      <path
         d="m 112.06989,95.583677 h -1.9065 v 11.360183 h -1.09505 V 95.583677 h -1.92225 v -0.969003 h 4.9238 z"
         style="stroke-width:0.1;stroke:#000000;stroke-opacity:1;fill:none;stroke-miterlimit:4;stroke-dasharray:none"
         id="path75" />
      <path
         d="m 117.64757,106.94386 h -1.04778 v -6.72787 l -2.30828,0.063 v 6.66485 h -1.04778 V 94.614674 h 1.04778 v 4.876529 q 0.62237,-0.07878 1.24474,-0.157562 0.7878,-0.102415 1.23686,-0.102415 0.87446,0 0.87446,0.858714 z"
         style="stroke-width:0.1;stroke:#000000;stroke-opacity:1;fill:none;stroke-miterlimit:4;stroke-dasharray:none"
         id="path77" />
      <path
         d="m 120.46792,97.600464 h -1.06354 v -1.323516 h 1.06354 z m -0.0158,9.343396 h -1.03203 v -7.665365 h 1.03203 z"
         style="stroke-width:0.1;stroke:#000000;stroke-opacity:1;fill:none;stroke-miterlimit:4;stroke-dasharray:none"
         id="path79" />
      <path
         d="m 126.35284,106.05364 q 0,0.89022 -0.89022,0.89022 h -2.40281 q -0.89023,0 -0.89023,-0.89022 v -1.74105 h 1.03203 v 1.72529 h 2.1192 v -1.52834 l -2.74157,-2.24525 q -0.3939,-0.31513 -0.3939,-0.81932 v -1.27625 q 0,-0.890225 0.89022,-0.890225 h 2.3713 q 0.89023,0 0.89023,0.890225 v 1.52834 h -1.01628 v -1.51259 h -2.1192 v 1.33928 l 2.76521,2.24525 q 0.38602,0.30724 0.38602,0.83507 z"
         style="stroke-width:0.1;stroke:#000000;stroke-opacity:1;fill:none;stroke-miterlimit:4;stroke-dasharray:none"
         id="path81" />
    </g>
    <g
       aria-label="Battle In The 'Burgh 2019"
       transform="scale(0.99997548,1.0000245)"
       style="font-style:normal;font-variant:normal;font-weight:normal;font-stretch:normal;font-size:7.08383751px;line-height:1;font-family:Ethnocentric;-inkscape-font-specification:'Ethnocentric, Normal';font-variant-ligatures:normal;font-variant-caps:normal;font-variant-numeric:normal;font-feature-settings:normal;text-align:start;letter-spacing:0px;word-spacing:0px;writing-mode:lr-tb;text-anchor:start;fill:none;fill-opacity:1;stroke:#000000;stroke-width:0.1;stroke-opacity:1;stroke-miterlimit:4;stroke-dasharray:none"
       id="text879">
      <path
         d="m 40.199097,128.87633 q 0.311689,0.0921 0.524204,0.36128 0.219599,0.26918 0.219599,0.69421 0,0.29752 -0.09209,0.55254 -0.09209,0.24794 -0.311689,0.43212 -0.219599,0.18418 -0.595042,0.29043 -0.368359,0.10626 -0.927983,0.10626 H 34.8508 v -2.88312 h 4.193632 q 0.162928,0 0.283353,-0.0638 0.127509,-0.0708 0.127509,-0.25501 0,-0.1771 -0.127509,-0.24085 -0.127509,-0.0638 -0.283353,-0.0638 H 34.8508 l 0.991737,-1.23259 h 3.13814 q 0.42503,0 0.765055,0.085 0.347108,0.0779 0.587958,0.24793 0.247934,0.16293 0.375444,0.41087 0.134592,0.24085 0.134592,0.5667 0,0.21252 -0.05667,0.37545 -0.05667,0.16293 -0.148761,0.29043 -0.08501,0.12043 -0.205431,0.20544 -0.113342,0.0779 -0.233767,0.12042 z m -3.874859,0.56671 v 0.65171 h 2.698942 q 0.240851,0 0.347108,-0.085 0.106258,-0.085 0.106258,-0.24794 0,-0.15584 -0.106258,-0.23377 -0.106257,-0.085 -0.347108,-0.085 z"
         style="word-spacing:0px;stroke-width:0.1;stroke:#000000;stroke-opacity:1;fill:none;stroke-miterlimit:4;stroke-dasharray:none"
         id="path84" />
      <path
         d="m 40.888332,131.31317 z m 2.373086,0 0.885479,-1.21842 h 1.190085 q 0.212515,0 0.439198,0 0.233767,0 0.403779,0.0142 -0.09917,-0.12751 -0.233767,-0.31877 -0.127509,-0.19835 -0.247934,-0.36836 l -0.850061,-1.25384 -2.224325,3.14522 h -1.73554 l 3.038967,-4.28572 q 0.14876,-0.20543 0.375443,-0.36836 0.226683,-0.16293 0.573791,-0.16293 0.33294,0 0.552539,0.15585 0.226683,0.14876 0.382527,0.37544 l 2.961044,4.28572 z"
         style="word-spacing:0px;stroke-width:0.1;stroke:#000000;stroke-opacity:1;fill:none;stroke-miterlimit:4;stroke-dasharray:none"
         id="path86" />
      <path
         d="m 47.326987,131.31317 z m 6.332951,-4.73909 -0.949234,1.23259 h -1.693037 v 3.5065 h -1.466355 v -3.5065 h -2.224325 l 0.949234,-1.23259 z"
         style="word-spacing:0px;stroke-width:0.1;stroke:#000000;stroke-opacity:1;fill:none;stroke-miterlimit:4;stroke-dasharray:none"
         id="path88" />
      <path
         d="m 53.6637,131.31317 z m 6.332951,-4.73909 -0.949234,1.23259 h -1.693038 v 3.5065 h -1.466354 v -3.5065 H 53.6637 l 0.949234,-1.23259 z"
         style="word-spacing:0px;stroke-width:0.1;stroke:#000000;stroke-opacity:1;fill:none;stroke-miterlimit:4;stroke-dasharray:none"
         id="path90" />
      <path
         d="m 60.446698,131.31317 z m 5.135782,-1.21842 -0.949234,1.21842 h -4.186548 v -4.73909 h 1.466354 v 3.52067 z"
         style="word-spacing:0px;stroke-width:0.1;stroke:#000000;stroke-opacity:1;fill:none;stroke-miterlimit:4;stroke-dasharray:none"
         id="path92" />
      <path
         d="m 66.077793,131.31317 z m 5.504142,-1.21842 -0.94215,1.21842 h -4.561992 v -4.73909 h 5.489975 l -0.949235,1.23259 h -3.067301 v 0.56671 h 3.754434 l -0.842977,1.07674 h -2.911457 v 0.64463 z"
         style="word-spacing:0px;stroke-width:0.1;stroke:#000000;stroke-opacity:1;fill:none;stroke-miterlimit:4;stroke-dasharray:none"
         id="path94" />
      <path
         d="m 76.281841,131.31317 h -1.466354 v -4.73909 h 1.466354 z"
         style="word-spacing:0px;stroke-width:0.1;stroke:#000000;stroke-opacity:1;fill:none;stroke-miterlimit:4;stroke-dasharray:none"
         id="path96" />
      <path
         d="m 77.180382,131.31317 z m 4.824094,0.0779 q -0.141677,0 -0.283354,-0.0496 -0.134593,-0.0425 -0.304605,-0.20543 l -2.904373,-2.60686 v 2.78395 h -1.331762 v -3.93153 q 0,-0.23377 0.06376,-0.40378 0.07084,-0.17001 0.177096,-0.27627 0.113341,-0.10625 0.255018,-0.15584 0.14876,-0.0496 0.304605,-0.0496 0.134593,0 0.269186,0.0496 0.141676,0.0425 0.318772,0.20543 l 2.904374,2.60685 v -2.78395 h 1.338845 v 3.92445 q 0,0.23377 -0.07084,0.40378 -0.06376,0.17001 -0.177096,0.28335 -0.106258,0.10626 -0.255018,0.15585 -0.148761,0.0496 -0.304605,0.0496 z"
         style="word-spacing:0px;stroke-width:0.1;stroke:#000000;stroke-opacity:1;fill:none;stroke-miterlimit:4;stroke-dasharray:none"
         id="path98" />
      <path
         d="m 40.737469,133.65792 -0.949234,1.23259 h -1.693038 v 3.5065 h -1.466354 v -3.5065 h -2.224325 l 0.949234,-1.23259 z"
         style="stroke-width:0.1;stroke:#000000;stroke-opacity:1;fill:none;stroke-miterlimit:4;stroke-dasharray:none"
         id="path100" />
      <path
         d="m 41.187514,138.39701 z m 5.752076,0 h -1.459271 v -1.82763 h -2.819367 v 1.82763 h -1.473438 v -4.73909 h 1.473438 v 1.67887 h 2.819367 v -1.67887 h 1.459271 z"
         style="stroke-width:0.1;stroke:#000000;stroke-opacity:1;fill:none;stroke-miterlimit:4;stroke-dasharray:none"
         id="path102" />
      <path
         d="m 47.842448,138.39701 z m 5.504141,-1.21842 -0.94215,1.21842 h -4.561991 v -4.73909 h 5.489974 l -0.949235,1.23259 h -3.067301 v 0.56671 h 3.754434 l -0.842977,1.07674 h -2.911457 v 0.64463 z"
         style="stroke-width:0.1;stroke:#000000;stroke-opacity:1;fill:none;stroke-miterlimit:4;stroke-dasharray:none"
         id="path104" />
      <path
         d="m 57.543541,133.65792 -0.432114,1.89847 h -0.446282 l -0.432114,-1.89847 z"
         style="stroke-width:0.1;stroke:#000000;stroke-opacity:1;fill:none;stroke-miterlimit:4;stroke-dasharray:none"
         id="path106" />
      <path
         d="m 63.456774,135.96017 q 0.311689,0.0921 0.524204,0.36127 0.219599,0.26919 0.219599,0.69422 0,0.29752 -0.09209,0.55254 -0.09209,0.24793 -0.311689,0.43211 -0.219598,0.18418 -0.595042,0.29044 -0.368359,0.10626 -0.927983,0.10626 h -4.165296 v -2.88312 h 4.193632 q 0.162928,0 0.283353,-0.0638 0.127509,-0.0708 0.127509,-0.25502 0,-0.17709 -0.127509,-0.24085 -0.127509,-0.0637 -0.283353,-0.0637 h -4.193632 l 0.991737,-1.23259 h 3.13814 q 0.42503,0 0.765055,0.085 0.347108,0.0779 0.587958,0.24793 0.247935,0.16293 0.375444,0.41086 0.134593,0.24086 0.134593,0.56671 0,0.21252 -0.05667,0.37544 -0.05667,0.16293 -0.148761,0.29044 -0.08501,0.12043 -0.205431,0.20543 -0.113341,0.0779 -0.233767,0.12043 z m -3.874859,0.56671 v 0.65171 h 2.698942 q 0.240851,0 0.347108,-0.085 0.106258,-0.085 0.106258,-0.24793 0,-0.15585 -0.106258,-0.23377 -0.106257,-0.085 -0.347108,-0.085 z"
         style="stroke-width:0.1;stroke:#000000;stroke-opacity:1;fill:none;stroke-miterlimit:4;stroke-dasharray:none"
         id="path108" />
      <path
         d="m 64.879519,138.39701 z m 6.21961,-2.06848 q 0,2.1464 -2.953961,2.1464 -0.857144,0 -1.473438,-0.13459 -0.616294,-0.13459 -1.020072,-0.40378 -0.396695,-0.26919 -0.587959,-0.66588 -0.18418,-0.40378 -0.18418,-0.94215 v -2.67061 h 1.459271 v 2.67061 q 0,0.2621 0.07084,0.4392 0.07084,0.17709 0.262102,0.29043 0.198348,0.10626 0.55254,0.15585 0.354191,0.0425 0.920898,0.0425 0.425031,0 0.708384,-0.0496 0.283354,-0.0496 0.453366,-0.16292 0.170012,-0.11335 0.24085,-0.29044 0.07792,-0.1771 0.07792,-0.42503 v -2.67061 h 1.473439 z"
         style="stroke-width:0.1;stroke:#000000;stroke-opacity:1;fill:none;stroke-miterlimit:4;stroke-dasharray:none"
         id="path110" />
      <path
         d="m 71.916092,138.39701 z m 6.73673,0 h -1.962223 l -1.055492,-1.25384 h -2.25266 v 1.25384 h -1.466355 v -2.42267 h 4.122794 q 0.340024,0 0.573791,-0.14168 0.233766,-0.14168 0.233766,-0.38961 0,-0.27627 -0.212515,-0.41086 -0.212515,-0.14168 -0.595042,-0.14168 h -4.122794 l 0.956318,-1.23259 h 3.046051 q 0.403778,0 0.835892,0.0779 0.432114,0.0708 0.786306,0.26211 0.354192,0.19126 0.580875,0.51712 0.233767,0.32585 0.233767,0.83589 0,0.27627 -0.08501,0.5242 -0.08501,0.24794 -0.247935,0.44628 -0.155844,0.19835 -0.389611,0.34003 -0.226683,0.13459 -0.51712,0.19126 0.120425,0.0921 0.269186,0.23377 0.148761,0.14168 0.396695,0.38961 z"
         style="stroke-width:0.1;stroke:#000000;stroke-opacity:1;fill:none;stroke-miterlimit:4;stroke-dasharray:none"
         id="path112" />
      <path
         d="m 78.865339,138.39701 z m 3.074385,-2.96105 h 3.031883 v 2.96105 h -3.251482 q -0.616293,0 -1.140497,-0.18418 -0.524204,-0.18418 -0.906732,-0.50295 -0.375443,-0.32586 -0.595042,-0.76506 -0.212515,-0.44628 -0.212515,-0.9634 0,-0.51712 0.212515,-0.94215 0.219599,-0.43211 0.595042,-0.73672 0.382528,-0.31169 0.906732,-0.47462 0.524204,-0.17001 1.140497,-0.17001 h 3.393159 l -0.949235,1.23259 h -2.443924 q -0.297521,0 -0.552539,0.085 -0.255018,0.085 -0.446282,0.24085 -0.184179,0.15584 -0.290437,0.36836 -0.106258,0.20543 -0.106258,0.46044 0,0.25502 0.09917,0.46754 0.106258,0.20543 0.290437,0.35419 0.191264,0.14876 0.446282,0.23377 0.255018,0.0779 0.559623,0.0779 h 1.792211 v -0.68713 h -2.451008 z"
         style="stroke-width:0.1;stroke:#000000;stroke-opacity:1;fill:none;stroke-miterlimit:4;stroke-dasharray:none"
         id="path114" />
      <path
         d="m 85.821225,138.39701 z m 5.752076,0 H 90.11403 v -1.82763 h -2.819367 v 1.82763 h -1.473438 v -4.73909 h 1.473438 v 1.67887 h 2.819367 v -1.67887 h 1.459271 z"
         style="stroke-width:0.1;stroke:#000000;stroke-opacity:1;fill:none;stroke-miterlimit:4;stroke-dasharray:none"
         id="path116" />
      <path
         d="m 70.18631,140.74176 h 2.776864 q 0.538372,0 0.920899,0.10626 0.389611,0.10625 0.630461,0.29752 0.247935,0.19126 0.361276,0.46753 0.120425,0.26919 0.120425,0.60213 0,0.3046 -0.106257,0.55962 -0.106258,0.24793 -0.325857,0.42503 -0.219599,0.1771 -0.559623,0.27627 -0.33294,0.0992 -0.786306,0.0992 h -2.25266 q -0.255018,0 -0.382527,0.0779 -0.120426,0.0779 -0.120426,0.2621 v 0.34711 h 4.569076 l -0.942151,1.21842 h -5.043692 v -1.55136 q 0,-0.65172 0.453365,-0.97049 0.453366,-0.32586 1.324678,-0.32586 h 2.25266 q 0.255019,0 0.375444,-0.0708 0.127509,-0.0779 0.127509,-0.26211 0,-0.18418 -0.127509,-0.25501 -0.120425,-0.0708 -0.375444,-0.0708 h -3.832356 z"
         style="stroke-width:0.1;stroke:#000000;stroke-opacity:1;fill:none;stroke-miterlimit:4;stroke-dasharray:none"
         id="path118" />
      <path
         d="m 78.65537,140.66384 q 1.508857,0 2.266828,0.58796 0.75797,0.58795 0.75797,1.85596 0,1.27509 -0.75797,1.86305 -0.750887,0.58796 -2.266828,0.58796 -1.515942,0 -2.273912,-0.58796 -0.750887,-0.58796 -0.750887,-1.86305 0,-1.26801 0.757971,-1.85596 0.75797,-0.58796 2.266828,-0.58796 z m 0,3.66234 q 0.432114,0 0.736719,-0.0425 0.304605,-0.0496 0.488784,-0.18418 0.18418,-0.13459 0.269186,-0.36836 0.08501,-0.24085 0.08501,-0.62338 0,-0.38253 -0.08501,-0.61629 -0.08501,-0.24085 -0.269186,-0.36836 -0.184179,-0.1346 -0.488784,-0.1771 -0.304605,-0.0496 -0.736719,-0.0496 -0.439198,0 -0.743803,0.0496 -0.297522,0.0425 -0.481701,0.1771 -0.18418,0.12751 -0.269186,0.36836 -0.08501,0.23376 -0.08501,0.61629 0,0.38253 0.08501,0.62338 0.08501,0.23377 0.269186,0.36836 0.184179,0.13459 0.481701,0.18418 0.304605,0.0425 0.743803,0.0425 z"
         style="stroke-width:0.1;stroke:#000000;stroke-opacity:1;fill:none;stroke-miterlimit:4;stroke-dasharray:none"
         id="path120" />
      <path
         d="m 82.944634,140.74176 h 1.73554 v 4.73909 h -1.466355 v -3.5065 h -1.154665 z"
         style="stroke-width:0.1;stroke:#000000;stroke-opacity:1;fill:none;stroke-miterlimit:4;stroke-dasharray:none"
         id="path122" />
      <path
         d="m 88.925607,144.26243 q 0.481701,0 0.793389,-0.22669 0.318773,-0.23376 0.474618,-0.55254 -0.12751,0.0213 -0.290438,0.0425 -0.155844,0.0142 -0.467533,0.0354 -0.304605,0.0142 -0.835893,0.0213 -0.531288,0.007 -1.4026,0.007 -0.807557,0 -1.289258,-0.33294 -0.481701,-0.33294 -0.481701,-0.97757 0,-0.48878 0.247934,-0.80047 0.247935,-0.31169 0.658797,-0.48879 0.410863,-0.18418 0.942151,-0.25501 0.538371,-0.0708 1.112162,-0.0708 1.64345,0 2.479343,0.58087 0.842977,0.57379 0.842977,1.76388 0,0.57379 -0.219599,1.03424 -0.212515,0.46045 -0.595043,0.77922 -0.375443,0.31877 -0.899647,0.48878 -0.524204,0.17002 -1.140498,0.17002 h -2.989379 l 0.949234,-1.21842 z m -1.615115,-1.61512 q 0.545455,0 0.935066,0 0.396695,-0.007 0.680049,-0.007 0.290437,-0.007 0.481701,-0.007 0.191263,-0.007 0.33294,-0.0142 0.141677,-0.007 0.24085,-0.0142 0.106258,-0.0142 0.212516,-0.0283 -0.05667,-0.22668 -0.205432,-0.36127 -0.141676,-0.1346 -0.382527,-0.20543 -0.233767,-0.0708 -0.566707,-0.0921 -0.325856,-0.0213 -0.736719,-0.0213 -0.460449,0 -0.750887,0.0283 -0.290437,0.0283 -0.453365,0.085 -0.162929,0.0496 -0.226683,0.12751 -0.06376,0.0779 -0.06376,0.18417 0,0.32586 0.502953,0.32586 z"
         style="stroke-width:0.1;stroke:#000000;stroke-opacity:1;fill:none;stroke-miterlimit:4;stroke-dasharray:none"
         id="path124" />
    </g>
    <path
       id="path7896-9-7"
       style="fill:none;stroke:#000000;stroke-width:0.1;stroke-linecap:butt;stroke-linejoin:miter;stroke-miterlimit:4;stroke-dasharray:none;stroke-opacity:1"
       d="m 31.248771,194.0261 h 0.49351 14.305001 v 15.8718 H 116.0934 v -15.8718 h 14.798 V 183.17406 C 98.786171,164.00842 104.83232,164.01485 104.83232,164.01485 l 26.28803,-0.012 0.0284,-75.598781 c -0.10607,-1.549113 -2.42929,-0.92945 -3.24266,-1.369921 -1.47682,0.156067 -2.84472,0.343254 -4.34484,-0.241127 -1.80027,-1.046441 -1.93187,-4.717659 -3.87434,-5.287548 -2.23929,-0.286143 -1.48817,-2.497857 -3.38953,-2.88986 0.37592,-2.416663 -0.31127,-3.182887 -2.64078,-2.754307 -0.92175,-0.355303 -2.20637,-1.00651 -2.73499,-0.406372 -1.98778,-0.858369 -1.35446,-0.154666 -2.33087,1.4515 -0.37317,0.965176 -2.43773,-1.167426 -3.79939,-1.366651 -0.59629,0.974579 -1.74766,1.218883 -2.25982,0.436056 -0.6462,0.948844 -3.158669,1.601339 -3.988139,0.528006 -0.85139,-1.751561 -2.39761,0.35904 -3.03166,-0.227241 -0.99727,-1.038748 -2.7338,0.599273 -3.83968,-0.445156 -1.23188,1.078374 -1.74075,-0.270707 -3.11432,-0.513792 -0.58948,0.901643 -0.32664,2.388935 -1.59654,2.341148 -1.17481,0.141588 -2.71536,1.170558 -3.67781,0.957091 -1.52637,1.135835 -1.92765,0.894213 -3.61812,1.505934 -1.85796,0.208039 -2.39851,1.614996 -4.17962,1.411752 -1.54185,0.05538 -2.508903,0.129083 -4.110217,0.434918 -1.672772,-0.287911 -3.994171,1.462647 -5.406329,0.170711 -0.80187,0.376969 -1.870466,0.585508 -1.948325,-0.752032 -0.560845,-1.074101 -1.908948,-1.092067 -2.732543,-0.183592 -1.132623,-0.564309 -2.274109,0.245731 -3.347376,0.538673 -1.404877,-0.04967 -1.044562,-4.420198 -1.563276,-1.106761 -0.350192,0.945529 -1.340244,2.463115 -1.716298,2.685151 -0.687058,-1.149098 -2.091934,-0.530239 -3.736538,-0.98295 -2.537808,0.824946 -1.220116,-1.372462 -3.195701,-0.98039 0.02583,1.659371 -1.450687,1.593193 -2.732124,1.406931 -1.180338,0.835569 -2.883002,0.727138 -3.965843,1.533696 -1.091748,-0.592828 -1.872692,-1.553349 -3.232475,-0.399483 -0.626515,0.745713 -1.297964,0.985616 -2.782061,1.052968 -0.561062,1.524513 -3.443816,-1.168476 -3.509356,2.209798 10e-6,0.351025 0.003,0.793481 0.02454,1.242801 l 0.02377,75.59884 23.456087,0.006 c 0,0 14.440137,0.8366 -23.762837,19.16555 z"
       inkscape:connector-curvature="0"
       sodipodi:nodetypes="ccccccccccccccccccccccccccccccccccccccccccccccc" />
  </g>
</svg>
