<?xml version="1.0" encoding="UTF-8" standalone="no"?>
<!-- Created with Inkscape (http://www.inkscape.org/) -->

<svg
   xmlns:osb="http://www.openswatchbook.org/uri/2009/osb"
   xmlns:dc="http://purl.org/dc/elements/1.1/"
   xmlns:cc="http://creativecommons.org/ns#"
   xmlns:rdf="http://www.w3.org/1999/02/22-rdf-syntax-ns#"
   xmlns:svg="http://www.w3.org/2000/svg"
   xmlns="http://www.w3.org/2000/svg"
   xmlns:xlink="http://www.w3.org/1999/xlink"
   xmlns:sodipodi="http://sodipodi.sourceforge.net/DTD/sodipodi-0.dtd"
   xmlns:inkscape="http://www.inkscape.org/namespaces/inkscape"
   width="210mm"
   height="297mm"
   viewBox="0 0 210 297"
   version="1.1"
   id="svg829"
   sodipodi:docname="trophy3rd outline.svg"
   inkscape:version="0.92.2 5c3e80d, 2017-08-06">
  <defs
     id="defs823">
    <inkscape:perspective
       sodipodi:type="inkscape:persp3d"
       inkscape:vp_x="0 : 148.5 : 1"
       inkscape:vp_y="0 : 1000 : 0"
       inkscape:vp_z="210 : 148.5 : 1"
       inkscape:persp3d-origin="105 : 99 : 1"
       id="perspective3277" />
    <linearGradient
       id="linearGradient3224"
       osb:paint="solid">
      <stop
         style="stop-color:#808000;stop-opacity:1;"
         offset="0"
         id="stop3222" />
    </linearGradient>
    <linearGradient
       inkscape:collect="always"
       id="linearGradient3179">
      <stop
         style="stop-color:#000000;stop-opacity:1;"
         offset="0"
         id="stop3175" />
      <stop
         style="stop-color:#000000;stop-opacity:0;"
         offset="1"
         id="stop3177" />
    </linearGradient>
    <radialGradient
       inkscape:collect="always"
       xlink:href="#linearGradient3179"
       id="radialGradient3183"
       cx="65.767632"
       cy="232.44125"
       fx="65.767632"
       fy="232.44125"
       r="328.08322"
       gradientTransform="matrix(1,0,0,0.13750011,0,200.48055)"
       gradientUnits="userSpaceOnUse" />
    <linearGradient
       inkscape:collect="always"
       xlink:href="#linearGradient3179"
       id="linearGradient3191"
       x1="-262.44788"
       y1="232.44125"
       x2="393.98315"
       y2="232.44125"
       gradientUnits="userSpaceOnUse" />
    <marker
       style="overflow:visible"
       refY="0.0"
       refX="0.0"
       orient="auto"
       id="DistanceX">
      <path
         id="path4"
         style="stroke:#000000; stroke-width:0.5"
         d="M 3,-3 L -3,3 M 0,-5 L  0,5" />
    </marker>
    <pattern
       y="0"
       x="0"
       width="8"
       patternUnits="userSpaceOnUse"
       id="Hatch"
       height="8">
      <path
         id="path7"
         stroke-width="0.25"
         stroke="#000000"
         linecap="square"
         d="M8 4 l-4,4" />
      <path
         id="path9"
         stroke-width="0.25"
         stroke="#000000"
         linecap="square"
         d="M6 2 l-4,4" />
      <path
         id="path11"
         stroke-width="0.25"
         stroke="#000000"
         linecap="square"
         d="M4 0 l-4,4" />
    </pattern>
    <symbol
       id="*MODEL_SPACE" />
    <symbol
       id="*PAPER_SPACE" />
    <marker
       style="overflow:visible"
       refY="0.0"
       refX="0.0"
       orient="auto"
       id="DistanceX-4">
      <path
         id="path7836"
         style="stroke:#000000; stroke-width:0.5"
         d="M 3,-3 L -3,3 M 0,-5 L  0,5" />
    </marker>
    <pattern
       y="0"
       x="0"
       width="8"
       patternUnits="userSpaceOnUse"
       id="Hatch-9"
       height="8">
      <path
         id="path7839"
         stroke-width="0.25"
         stroke="#000000"
         linecap="square"
         d="M8 4 l-4,4" />
      <path
         id="path7841"
         stroke-width="0.25"
         stroke="#000000"
         linecap="square"
         d="M6 2 l-4,4" />
      <path
         id="path7843"
         stroke-width="0.25"
         stroke="#000000"
         linecap="square"
         d="M4 0 l-4,4" />
    </pattern>
    <symbol
       id="*MODEL_SPACE-7" />
    <symbol
       id="*PAPER_SPACE-3" />
  </defs>
  <sodipodi:namedview
     id="base"
     pagecolor="#ffffff"
     bordercolor="#666666"
     borderopacity="1.0"
     inkscape:pageopacity="0.0"
     inkscape:pageshadow="2"
     inkscape:zoom="1.0000001"
     inkscape:cx="302.39513"
     inkscape:cy="503.5898"
     inkscape:document-units="mm"
     inkscape:current-layer="layer1"
     showgrid="false"
     inkscape:window-width="1440"
     inkscape:window-height="855"
     inkscape:window-x="0"
     inkscape:window-y="1"
     inkscape:window-maximized="1"
     inkscape:measure-start="0,0"
     inkscape:measure-end="0,0" />
  <metadata
     id="metadata826">
    <rdf:RDF>
      <cc:Work
         rdf:about="">
        <dc:format>image/svg+xml</dc:format>
        <dc:type
           rdf:resource="http://purl.org/dc/dcmitype/StillImage" />
        <dc:title></dc:title>
      </cc:Work>
    </rdf:RDF>
  </metadata>
  <g
     inkscape:label="Layer 1"
     inkscape:groupmode="layer"
     id="layer1">
    <g
       id="g874"
       inkscape:label="0"
       transform="matrix(0.0627379,0,0,0.06273559,89.736677,61.374675)"
       style="stroke-width:1.59396255;stroke-miterlimit:4;stroke-dasharray:none">
      <path
         id="path7689"
         style="fill:none;fill-opacity:1;stroke:#000000;stroke-width:1.59396255;stroke-linejoin:round;stroke-miterlimit:4;stroke-dasharray:none;stroke-opacity:1"
         d="M 272.50287,1234.2819 A 321.45723,321.45723 0 0 1 -48.954365,1555.739 321.45723,321.45723 0 0 1 -370.41159,1234.2819 321.45723,321.45723 0 0 1 -48.954365,912.82385 321.45723,321.45723 0 0 1 272.50287,1234.2819 Z m -507.33545,-176.6272 c -0.002,3.3065 1.76099,6.3627 4.62417,8.0164 2.86318,1.6539 6.39132,1.6539 9.25449,0 2.86318,-1.6537 4.62607,-4.7099 4.62415,-8.0164 0.002,-3.3065 -1.76097,-6.3627 -4.62415,-8.0165 -2.86317,-1.6538 -6.39131,-1.6538 -9.25449,0 -2.86318,1.6538 -4.62608,4.71 -4.62417,8.0165 z m 18.505,16.0303 c 5.7259,-3.3069 9.25193,-9.418 9.24922,-16.0303 0.002,-6.6123 -3.52332,-12.7234 -9.24922,-16.0303 -5.72589,-3.307 -12.78128,-3.307 -18.50718,0 -5.7259,3.3069 -9.25192,9.418 -9.24922,16.0303 -0.002,6.6123 3.52332,12.7234 9.24922,16.0303 5.7259,3.3069 12.78129,3.3069 18.50718,0 z m 307.833497,292.6323 c -1.908264,-1.1017 -4.259352,-1.1017 -6.167616,0 -1.908257,1.1018 -3.083801,3.1378 -3.083801,5.3414 0,2.2034 1.175544,4.2395 3.083801,5.3412 1.908264,1.1018 4.259352,1.1018 6.167616,0 1.908256,-1.1017 3.0838,-3.1378 3.0838,-5.3412 0,-2.2036 -1.175544,-4.2396 -3.0838,-5.3414 z m 26.912993,28.5616 c -5.72591,3.3068 -9.25193,9.418 -9.24922,16.0301 -0.002,6.6123 3.52331,12.7235 9.24922,16.0302 5.72589,3.3069 12.78127,3.3069 18.50716,0 5.7259,-3.3067 9.25193,-9.4179 9.24921,-16.0302 0.002,-6.6121 -3.52331,-12.7233 -9.24921,-16.0301 -5.72589,-3.3069 -12.78127,-3.3069 -18.50716,0 z m 13.88083,8.0137 c -2.86319,-1.6537 -6.39132,-1.6537 -9.25448,0 -2.8632,1.6538 -4.62609,4.71 -4.62417,8.0164 -0.002,3.3065 1.76097,6.3627 4.62417,8.0164 2.86316,1.6538 6.39129,1.6538 9.25448,0 2.86316,-1.6537 4.62607,-4.7099 4.62415,-8.0164 0.002,-3.3064 -1.76099,-6.3626 -4.62415,-8.0164 z m -23.13005,-345.2379 c -0.002,6.6123 3.52331,12.7234 9.24922,16.0303 5.72589,3.3069 12.78127,3.3069 18.50716,0 5.7259,-3.3069 9.25193,-9.418 9.24921,-16.0303 0.002,-6.6123 -3.52331,-12.7234 -9.24921,-16.0303 -5.72589,-3.307 -12.78127,-3.307 -18.50716,0 -5.72591,3.3069 -9.25193,9.418 -9.24922,16.0303 z m -301.66808,49.9333 c 3.81653,2.2035 8.51868,2.2035 12.33522,0 3.81653,-2.2036 6.16761,-6.2758 6.16761,-10.6827 0,-4.407 -2.35108,-8.4792 -6.16761,-10.6827 -3.81654,-2.2035 -8.51869,-2.2035 -12.33522,0 -3.81652,2.2035 -6.1676,6.2757 -6.1676,10.6827 0,4.4069 2.35108,8.4791 6.1676,10.6827 z m 287.088107,221.9555 v 24.6706 c 7.750763,2.7403 12.763973,10.2659 12.306543,18.474 l 11.91817,11.9182 c 12.21379,-4.1132 25.65211,0.7225 32.4446,11.675 6.79248,10.9525 5.1517,25.1399 -3.96135,34.253 -9.11307,9.1129 -23.30041,10.7538 -34.25293,3.9613 -10.95255,-6.7925 -15.788217,-20.2309 -11.67494,-32.4446 l -11.918173,-11.9182 c -8.208193,0.4574 -15.733833,-4.5558 -18.474145,-12.3065 H 46.30704 v -24.6705 l 8.22348,12.3352 h 16.446972 c 1.862952,-5.2692 6.007792,-9.4141 11.277008,-11.2769 v -16.4471 l -12.335216,-8.2235 h 24.670433 v 4.1118 z m 37.710023,-279.9053 c -2.86319,-1.6538 -6.39132,-1.6538 -9.25448,0 -2.8632,1.6538 -4.62609,4.71 -4.62417,8.0165 -0.002,3.3065 1.76097,6.3627 4.62417,8.0164 2.86316,1.6539 6.39129,1.6539 9.25448,0 2.86316,-1.6537 4.62607,-4.7099 4.62415,-8.0164 0.002,-3.3065 -1.76099,-6.3627 -4.62415,-8.0165 z m -172.806465,173.1023 h -10.47131 v -41.8855 h 10.47131 z m -161.323425,-26.1784 h 10.47131 v 26.1784 h -10.47131 z m -19.12377,206.3305 c -2.86317,-1.6537 -6.39131,-1.6537 -9.25449,0 -2.86318,1.6538 -4.62608,4.71 -4.62417,8.0164 -0.002,3.3065 1.76099,6.3627 4.62417,8.0164 2.86318,1.6538 6.39132,1.6538 9.25449,0 2.86318,-1.6537 4.62607,-4.7099 4.62415,-8.0164 0.002,-3.3064 -1.76097,-6.3626 -4.62415,-8.0164 z M 58.643412,1180.855 v 36.6498 l -10.471304,-10.4713 v -26.1785 z m -238.806582,180.121 c -3.81654,-2.2034 -8.51869,-2.2034 -12.33522,0 -3.81652,2.2035 -6.1676,6.2757 -6.1676,10.6827 0,4.4069 2.35108,8.4791 6.1676,10.6825 3.81653,2.2036 8.51868,2.2036 12.33522,0 3.81653,-2.2034 6.16761,-6.2756 6.16761,-10.6825 0,-4.407 -2.35108,-8.4792 -6.16761,-10.6827 z M 1.0512624,1222.7405 v -36.6499 l 10.4712946,10.4715 v 26.1784 z M -191.35884,1264.424 v 10.4713 h -20.94257 v -10.4713 z m 8.11186,112.5759 c 1.90826,-1.1017 3.08381,-3.1378 3.08381,-5.3412 0,-2.2036 -1.17555,-4.2396 -3.08381,-5.3414 -1.90826,-1.1017 -4.25934,-1.1017 -6.1676,0 -1.90826,1.1018 -3.08381,3.1378 -3.08381,5.3414 0,2.2034 1.17555,4.2395 3.08381,5.3412 1.90826,1.1018 4.25934,1.1018 6.1676,0 z m -44.76138,-86.3977 v -31.4138 l 10.4713,-10.4713 h 41.88516 v 10.4713 h -41.88516 v 20.9425 h 41.88518 l -10.4713,10.4713 z m 213.679897,-99.2757 10.4712944,-10.4715 v 41.8855 H -14.328463 v -15.707 H -35.27107 v -10.4714 h 20.942607 z m -140.708067,99.2757 h -15.70695 l 41.88516,-41.8851 h 15.70693 z m -15.70695,-5.2356 v -36.6495 h 10.47132 v 26.1782 z M 32.465148,1264.424 h 10.471316 v 26.1782 H 32.465148 Z m -276.549128,146.485 c -0.002,6.6123 3.52332,12.7235 9.24922,16.0302 5.7259,3.3069 12.78129,3.3069 18.50718,0 5.7259,-3.3067 9.25193,-9.4179 9.24922,-16.0302 0.002,-6.6121 -3.52332,-12.7233 -9.24922,-16.0301 -5.72589,-3.3069 -12.78128,-3.3069 -18.50718,0 -5.7259,3.3068 -9.25192,9.418 -9.24922,16.0301 z m 151.54796,-136.0137 v -10.4713 h 20.94261 v 10.4713 z m 187.501753,5.2356 10.471287,10.4713 H 68.7875 l -8e-6,-10.4713 z m -239.181473,97.6954 h -24.67042 c -2.74031,7.7507 -10.26597,12.7639 -18.47416,12.3065 l -11.91817,11.9182 c 4.1133,12.2137 -0.72238,25.6521 -11.67492,32.4446 -10.95254,6.7925 -25.13989,5.1516 -34.25296,-3.9613 -9.11307,-9.1131 -10.75383,-23.3005 -3.96135,-34.253 6.79249,-10.9525 20.23082,-15.7882 32.44462,-11.675 l 11.91819,-11.9182 c -0.45744,-8.2081 4.55579,-15.7337 12.30652,-18.474 v -24.6706 h 24.67043 l -12.33521,8.2235 v 16.4471 c 5.26922,1.8628 9.41405,6.0077 11.27701,11.2769 h 16.44695 l 8.22347,-12.3352 v 24.6705 h -4.11174 z M -40.506715,1264.424 v 26.1782 h -10.47131 v -36.6495 z m -15.379735,-15.7069 v 10.4713 h -41.885225 v 20.9425 h 41.885225 l -10.47131,10.4713 h -41.8852 v -31.4138 l 10.471285,-10.4713 z m 119.438266,-25.9766 v -41.8855 l 10.471308,10.4715 v 20.9426 H 105.437 l 10.47129,10.4714 z m -114.529841,25.9766 h 15.706965 l 41.8851942,41.8851 H -9.0928073 Z m 57.5921592,0 v 36.6495 l -10.4712868,-10.4713 v -26.1782 z M 151.25903,1072.2825 c 6.79248,-10.9526 5.1517,-25.14 -3.96135,-34.2531 -9.11307,-9.1132 -23.30041,-10.754 -34.25293,-3.9614 -10.95255,6.7925 -15.788217,20.231 -11.67494,32.4448 l -11.918173,11.9182 c -8.208193,-0.4574 -15.733833,4.5559 -18.474145,12.3067 H 46.30704 v 24.6705 l 8.22348,-12.3353 h 16.446972 c 1.862952,5.2693 6.007792,9.4141 11.277008,11.2771 v 16.447 l -12.335216,8.2234 v 0 H 94.589717 V 1114.35 c 7.750763,-2.7402 12.763973,-10.2661 12.306543,-18.4742 l 11.91817,-11.9183 c 12.21379,4.1133 25.65211,-0.7224 32.4446,-11.675 z m -301.05992,124.2796 h 20.94257 v 10.4714 h -20.94257 z m 234.295343,52.155 41.885167,41.8851 H 110.67269 L 68.7875,1248.7171 Z m -239.530983,-36.448 h 41.88515 l -10.47128,10.4714 h -41.88518 v -31.414 l 10.47131,-10.4715 h 41.88515 v 10.4715 h -41.88515 z m -37.46186,-115.3638 c 0,2.2035 1.17555,4.2396 3.08381,5.3413 1.90826,1.1017 4.25934,1.1017 6.1676,0 1.90826,-1.1017 3.08381,-3.1378 3.08381,-5.3413 0,-2.2035 -1.17555,-4.2396 -3.08381,-5.3414 -1.90826,-1.1017 -4.25934,-1.1017 -6.1676,0 -1.90826,1.1018 -3.08381,3.1379 -3.08381,5.3414 z m 282.228491,151.8118 h 36.649519 v 10.4713 H 100.2014 Z M 1.0512624,1180.855 H 16.758197 l 41.885215,41.8855 H 42.936464 Z m 84.2870386,-89.2911 c -1.908257,1.1018 -3.083801,3.1379 -3.083801,5.3414 0,2.2035 1.175544,4.2396 3.083801,5.3413 1.908264,1.1017 4.259352,1.1017 6.167616,0 1.908256,-1.1017 3.0838,-3.1378 3.0838,-5.3413 0,-2.2035 -1.175544,-4.2396 -3.0838,-5.3414 -1.908264,-1.1017 -4.259352,-1.1017 -6.167616,0 z M 63.879064,1259.1884 H 11.522557 l 10.471295,-10.4713 h 41.885212 z m -234.295324,-67.8619 h -52.35646 l 10.47131,-10.4715 h 41.88515 z M 94.589717,1107.588 c 3.816528,-2.2036 6.167603,-6.2758 6.167603,-10.6827 0,-4.407 -2.351075,-8.4792 -6.167603,-10.6827 -3.81652,-2.2035 -8.518688,-2.2035 -12.335217,0 -3.816536,2.2035 -6.167608,6.2757 -6.167608,10.6827 0,4.4069 2.351072,8.4791 6.167608,10.6827 3.816529,2.2035 8.518697,2.2035 12.335217,0 z m -247.028927,-4.5151 8.22347,12.3353 v -24.6705 h -24.67042 c -2.74031,-7.7508 -10.26597,-12.7641 -18.47416,-12.3067 l -11.91817,-11.9182 c 4.1133,-12.2138 -0.72238,-25.6523 -11.67492,-32.4448 -10.95254,-6.7926 -25.13989,-5.1518 -34.25296,3.9614 -9.11307,9.1131 -10.75383,23.3005 -3.96135,34.2531 6.79249,10.9526 20.23082,15.7883 32.44462,11.675 l 11.91819,11.9183 c -0.45744,8.2081 4.55579,15.734 12.30652,18.4742 v 24.6704 h 24.67043 l -12.33521,-8.2234 v -16.447 c 5.26922,-1.863 9.41405,-6.0078 11.27701,-11.2771 z m 231.697974,88.2536 -10.47128,-10.4715 h 41.885186 l 10.47128,10.4715 v 31.414 l -10.47128,-10.4714 v -20.9426 z m 17.861809,295.9649 C 187.51196,1435.1038 243.19538,1338.6573 243.19538,1234.2823 m -438.22462,253.0091 c 90.3914,52.1874 201.7583341,52.1874 292.149813,0 M -341.1041,1234.2823 c 0,104.375 55.68343,200.8215 146.07486,253.0091 m 0,-506.01928 C -285.42067,1033.4598 -341.1041,1129.9069 -341.1041,1234.2823 M 97.120573,981.27212 C 53.705496,956.20641 5.4516142,943.1799 -42.992895,942.1923 c -52.41843,-1.0685 -105.059975,11.95804 -152.036345,39.07982 m 438.22462,253.01018 c 0,-53.6509 -14.71241,-105.207 -41.28852,-149.7342 -25.12651,-42.0985 -60.85776,-77.9137 -104.786287,-103.27598 m -153.007023,210.05438 -10.47131,10.4713 v -10.4713 h -31.413915 v 20.9426 h 41.885225 v 10.4714 h -41.885225 l -10.471285,-10.4714 v -31.4141 h 52.35651 z M 82.2545,1382.3412 c 3.816529,2.2036 8.518697,2.2036 12.335217,0 3.816528,-2.2034 6.167603,-6.2756 6.167603,-10.6825 0,-4.407 -2.351075,-8.4792 -6.167603,-10.6827 -3.81652,-2.2034 -8.518688,-2.2034 -12.335217,0 -3.816536,2.2035 -6.167608,6.2757 -6.167608,10.6827 0,4.4069 2.351072,8.4791 6.167608,10.6825 z"
         inkscape:connector-curvature="0" />
    </g>
    <g
       aria-label="Battle in
the 'Burgh
2019"
       transform="scale(1.0000183,0.99998166)"
       style="font-style:normal;font-variant:normal;font-weight:normal;font-stretch:normal;font-size:9.50231361px;line-height:1;font-family:Ethnocentric;-inkscape-font-specification:'Ethnocentric, Normal';font-variant-ligatures:normal;font-variant-caps:normal;font-variant-numeric:normal;font-feature-settings:normal;text-align:center;letter-spacing:0px;word-spacing:0px;writing-mode:lr-tb;text-anchor:middle;fill:none;fill-opacity:1;stroke:#000000;stroke-width:0.1;stroke-miterlimit:4;stroke-dasharray:none;stroke-opacity:1"
       id="text7695">
      <path
         d="m 79.888599,91.947238 q 0.418102,0.12353 0.703171,0.484618 0.294572,0.361088 0.294572,0.931227 0,0.399097 -0.12353,0.74118 -0.12353,0.332581 -0.418102,0.579641 -0.294571,0.247061 -0.798194,0.389595 -0.49412,0.142535 -1.244803,0.142535 h -5.587361 v -3.867442 h 5.62537 q 0.218553,0 0.380093,-0.08552 0.171041,-0.09502 0.171041,-0.342083 0,-0.237558 -0.171041,-0.323078 -0.171042,-0.08552 -0.380093,-0.08552 h -5.62537 l 1.330324,-1.653403 h 4.209525 q 0.570139,0 1.02625,0.114028 0.465614,0.104525 0.788692,0.332581 0.332581,0.218553 0.503623,0.551134 0.180544,0.323079 0.180544,0.760185 0,0.28507 -0.07602,0.503623 -0.07602,0.218553 -0.199548,0.389595 -0.114028,0.161539 -0.275567,0.275567 -0.152037,0.104525 -0.313577,0.161539 z m -5.197765,0.760185 v 0.874213 h 3.620381 q 0.323079,0 0.465614,-0.114028 0.142534,-0.114028 0.142534,-0.332581 0,-0.209051 -0.142534,-0.313576 -0.142535,-0.114028 -0.465614,-0.114028 z"
         style="font-style:normal;font-variant:normal;font-weight:normal;font-stretch:normal;font-size:9.50231361px;line-height:1;font-family:Ethnocentric;-inkscape-font-specification:'Ethnocentric, Normal';font-variant-ligatures:normal;font-variant-caps:normal;font-variant-numeric:normal;font-feature-settings:normal;text-align:center;writing-mode:lr-tb;text-anchor:middle;stroke-width:0.1;stroke-miterlimit:4;stroke-dasharray:none;fill:none;stroke:#000000;stroke-opacity:1"
         id="path885" />
      <path
         d="m 80.813145,95.216034 z m 3.183275,0 1.187789,-1.634398 h 1.596389 q 0.285069,0 0.589143,0 0.313577,0 0.541632,0.019 -0.133032,-0.171042 -0.313576,-0.427604 -0.171042,-0.266065 -0.332581,-0.494121 l -1.140278,-1.681909 -2.983726,4.219027 h -2.328067 l 4.076492,-5.7489 q 0.199549,-0.275567 0.503623,-0.49412 0.304074,-0.218553 0.769687,-0.218553 0.446609,0 0.741181,0.209051 0.304074,0.199548 0.513125,0.503622 l 3.971967,5.7489 z"
         style="font-style:normal;font-variant:normal;font-weight:normal;font-stretch:normal;font-size:9.50231361px;line-height:1;font-family:Ethnocentric;-inkscape-font-specification:'Ethnocentric, Normal';font-variant-ligatures:normal;font-variant-caps:normal;font-variant-numeric:normal;font-feature-settings:normal;text-align:center;writing-mode:lr-tb;text-anchor:middle;stroke-width:0.1;stroke-miterlimit:4;stroke-dasharray:none;fill:none;stroke:#000000;stroke-opacity:1"
         id="path887" />
      <path
         d="m 89.450006,95.216034 z m 8.495068,-6.357048 -1.27331,1.653403 h -2.271053 v 4.703645 h -1.966979 v -4.703645 h -2.983726 l 1.27331,-1.653403 z"
         style="font-style:normal;font-variant:normal;font-weight:normal;font-stretch:normal;font-size:9.50231361px;line-height:1;font-family:Ethnocentric;-inkscape-font-specification:'Ethnocentric, Normal';font-variant-ligatures:normal;font-variant-caps:normal;font-variant-numeric:normal;font-feature-settings:normal;text-align:center;writing-mode:lr-tb;text-anchor:middle;stroke-width:0.1;stroke-miterlimit:4;stroke-dasharray:none;fill:none;stroke:#000000;stroke-opacity:1"
         id="path889" />
      <path
         d="m 97.950122,95.216034 z m 8.495068,-6.357048 -1.27331,1.653403 h -2.27105 v 4.703645 h -1.96698 v -4.703645 h -2.983728 l 1.27331,-1.653403 z"
         style="font-style:normal;font-variant:normal;font-weight:normal;font-stretch:normal;font-size:9.50231361px;line-height:1;font-family:Ethnocentric;-inkscape-font-specification:'Ethnocentric, Normal';font-variant-ligatures:normal;font-variant-caps:normal;font-variant-numeric:normal;font-feature-settings:normal;text-align:center;writing-mode:lr-tb;text-anchor:middle;stroke-width:0.1;stroke-miterlimit:4;stroke-dasharray:none;fill:none;stroke:#000000;stroke-opacity:1"
         id="path891" />
      <path
         d="m 107.04889,95.216034 z m 6.88917,-1.634398 -1.27331,1.634398 h -5.61586 v -6.357048 h 1.96698 v 4.72265 z"
         style="font-style:normal;font-variant:normal;font-weight:normal;font-stretch:normal;font-size:9.50231361px;line-height:1;font-family:Ethnocentric;-inkscape-font-specification:'Ethnocentric, Normal';font-variant-ligatures:normal;font-variant-caps:normal;font-variant-numeric:normal;font-feature-settings:normal;text-align:center;writing-mode:lr-tb;text-anchor:middle;stroke-width:0.1;stroke-miterlimit:4;stroke-dasharray:none;fill:none;stroke:#000000;stroke-opacity:1"
         id="path893" />
      <path
         d="m 114.60248,95.216034 z m 7.3833,-1.634398 -1.26381,1.634398 h -6.11949 v -6.357048 h 7.3643 l -1.27331,1.653403 h -4.11451 v 0.760185 h 5.03623 l -1.13078,1.444351 h -3.90545 v 0.864711 z"
         style="font-style:normal;font-variant:normal;font-weight:normal;font-stretch:normal;font-size:9.50231361px;line-height:1;font-family:Ethnocentric;-inkscape-font-specification:'Ethnocentric, Normal';font-variant-ligatures:normal;font-variant-caps:normal;font-variant-numeric:normal;font-feature-settings:normal;text-align:center;writing-mode:lr-tb;text-anchor:middle;stroke-width:0.1;stroke-miterlimit:4;stroke-dasharray:none;fill:none;stroke:#000000;stroke-opacity:1"
         id="path895" />
      <path
         d="m 126.32329,95.216034 z m 1.96698,0 h -1.96698 v -6.357048 h 1.96698 z"
         style="font-style:normal;font-variant:normal;font-weight:normal;font-stretch:normal;font-size:9.50231361px;line-height:1;font-family:Ethnocentric;-inkscape-font-specification:'Ethnocentric, Normal';font-variant-ligatures:normal;font-variant-caps:normal;font-variant-numeric:normal;font-feature-settings:normal;text-align:center;writing-mode:lr-tb;text-anchor:middle;stroke-width:0.1;stroke-miterlimit:4;stroke-dasharray:none;fill:none;stroke:#000000;stroke-opacity:1"
         id="path897" />
      <path
         d="m 129.49558,95.216034 z m 6.47107,0.104525 q -0.19004,0 -0.38009,-0.06652 -0.18054,-0.05701 -0.4086,-0.275567 l -3.89595,-3.496851 v 3.734409 h -1.78643 V 89.94225 q 0,-0.313576 0.0855,-0.541632 0.095,-0.228056 0.23755,-0.37059 0.15204,-0.142535 0.34209,-0.209051 0.19955,-0.06652 0.4086,-0.06652 0.18054,0 0.36109,0.06652 0.19004,0.05701 0.4276,0.275567 l 3.89595,3.496851 v -3.734409 h 1.79594 v 5.264282 q 0,0.313576 -0.095,0.541632 -0.0855,0.228055 -0.23756,0.380092 -0.14253,0.142535 -0.34208,0.209051 -0.19955,0.06652 -0.4086,0.06652 z"
         style="font-style:normal;font-variant:normal;font-weight:normal;font-stretch:normal;font-size:9.50231361px;line-height:1;font-family:Ethnocentric;-inkscape-font-specification:'Ethnocentric, Normal';font-variant-ligatures:normal;font-variant-caps:normal;font-variant-numeric:normal;font-feature-settings:normal;text-align:center;writing-mode:lr-tb;text-anchor:middle;stroke-width:0.1;stroke-miterlimit:4;stroke-dasharray:none;fill:none;stroke:#000000;stroke-opacity:1"
         id="path899" />
      <path
         d="m 66.213879,104.71835 z m 8.495069,-6.35705 -1.273311,1.6534 h -2.271052 v 4.70365 h -1.966979 v -4.70365 h -2.983727 l 1.27331,-1.6534 z"
         style="font-style:normal;font-variant:normal;font-weight:normal;font-stretch:normal;font-size:9.50231361px;line-height:1;font-family:Ethnocentric;-inkscape-font-specification:'Ethnocentric, Normal';font-variant-ligatures:normal;font-variant-caps:normal;font-variant-numeric:normal;font-feature-settings:normal;text-align:center;writing-mode:lr-tb;text-anchor:middle;stroke-width:0.1;stroke-miterlimit:4;stroke-dasharray:none;fill:none;stroke:#000000;stroke-opacity:1"
         id="path901" />
      <path
         d="m 75.312641,104.71835 z m 7.715879,0 h -1.957477 v -2.4516 h -3.781921 v 2.4516 H 75.312641 V 98.3613 h 1.976481 v 2.25205 h 3.781921 V 98.3613 h 1.957477 z"
         style="font-style:normal;font-variant:normal;font-weight:normal;font-stretch:normal;font-size:9.50231361px;line-height:1;font-family:Ethnocentric;-inkscape-font-specification:'Ethnocentric, Normal';font-variant-ligatures:normal;font-variant-caps:normal;font-variant-numeric:normal;font-feature-settings:normal;text-align:center;writing-mode:lr-tb;text-anchor:middle;stroke-width:0.1;stroke-miterlimit:4;stroke-dasharray:none;fill:none;stroke:#000000;stroke-opacity:1"
         id="path903" />
      <path
         d="m 84.239618,104.71835 z m 7.383298,-1.6344 -1.263808,1.6344 h -6.11949 V 98.3613 h 7.364293 l -1.27331,1.6534 H 86.2161 v 0.76019 h 5.036226 l -1.130775,1.44435 H 86.2161 v 0.86471 z"
         style="font-style:normal;font-variant:normal;font-weight:normal;font-stretch:normal;font-size:9.50231361px;line-height:1;font-family:Ethnocentric;-inkscape-font-specification:'Ethnocentric, Normal';font-variant-ligatures:normal;font-variant-caps:normal;font-variant-numeric:normal;font-feature-settings:normal;text-align:center;writing-mode:lr-tb;text-anchor:middle;stroke-width:0.1;stroke-miterlimit:4;stroke-dasharray:none;fill:none;stroke:#000000;stroke-opacity:1"
         id="path905" />
      <path
         d="M 97.252741,98.3613 96.6731,100.90792 H 96.074454 L 95.494813,98.3613 Z"
         style="font-style:normal;font-variant:normal;font-weight:normal;font-stretch:normal;font-size:9.50231361px;line-height:1;font-family:Ethnocentric;-inkscape-font-specification:'Ethnocentric, Normal';font-variant-ligatures:normal;font-variant-caps:normal;font-variant-numeric:normal;font-feature-settings:normal;text-align:center;writing-mode:lr-tb;text-anchor:middle;stroke-width:0.1;stroke-miterlimit:4;stroke-dasharray:none;fill:none;stroke:#000000;stroke-opacity:1"
         id="path907" />
      <path
         d="m 105.1848,101.44955 q 0.4181,0.12353 0.70317,0.48462 0.29457,0.36109 0.29457,0.93123 0,0.39909 -0.12353,0.74118 -0.12353,0.33258 -0.4181,0.57964 -0.29457,0.24706 -0.7982,0.38959 -0.49412,0.14254 -1.2448,0.14254 h -5.58736 v -3.86744 h 5.62537 q 0.21855,0 0.38009,-0.0855 0.17104,-0.095 0.17104,-0.34209 0,-0.23756 -0.17104,-0.32308 -0.17104,-0.0855 -0.38009,-0.0855 h -5.62537 l 1.330324,-1.6534 h 4.209526 q 0.57014,0 1.02625,0.114028 0.46561,0.104525 0.78869,0.33258 0.33258,0.218554 0.50362,0.551135 0.18055,0.323078 0.18055,0.760187 0,0.28507 -0.076,0.50362 -0.076,0.21855 -0.19955,0.3896 -0.11403,0.16153 -0.27557,0.27556 -0.15203,0.10453 -0.31357,0.16154 z m -5.197769,0.76019 v 0.87421 h 3.620379 q 0.32308,0 0.46562,-0.11403 0.14253,-0.11403 0.14253,-0.33258 0,-0.20905 -0.14253,-0.31358 -0.14254,-0.11402 -0.46562,-0.11402 z"
         style="font-style:normal;font-variant:normal;font-weight:normal;font-stretch:normal;font-size:9.50231361px;line-height:1;font-family:Ethnocentric;-inkscape-font-specification:'Ethnocentric, Normal';font-variant-ligatures:normal;font-variant-caps:normal;font-variant-numeric:normal;font-feature-settings:normal;text-align:center;writing-mode:lr-tb;text-anchor:middle;stroke-width:0.1;stroke-miterlimit:4;stroke-dasharray:none;fill:none;stroke:#000000;stroke-opacity:1"
         id="path909" />
      <path
         d="m 107.09328,104.71835 z m 8.34303,-2.77468 q 0,2.8792 -3.96247,2.8792 -1.14978,0 -1.97648,-0.18054 -0.8267,-0.18054 -1.36833,-0.54163 -0.53213,-0.36109 -0.78869,-0.89322 -0.24706,-0.54163 -0.24706,-1.26381 V 98.3613 h 1.95747 v 3.58237 q 0,0.35159 0.095,0.58915 0.095,0.23755 0.35158,0.38959 0.26607,0.14253 0.74118,0.20905 0.47512,0.057 1.2353,0.057 0.57014,0 0.95023,-0.0665 0.3801,-0.0665 0.60815,-0.21855 0.22806,-0.15204 0.32308,-0.3896 0.10453,-0.23756 0.10453,-0.57014 V 98.3613 h 1.97648 z"
         style="font-style:normal;font-variant:normal;font-weight:normal;font-stretch:normal;font-size:9.50231361px;line-height:1;font-family:Ethnocentric;-inkscape-font-specification:'Ethnocentric, Normal';font-variant-ligatures:normal;font-variant-caps:normal;font-variant-numeric:normal;font-feature-settings:normal;text-align:center;writing-mode:lr-tb;text-anchor:middle;stroke-width:0.1;stroke-miterlimit:4;stroke-dasharray:none;fill:none;stroke:#000000;stroke-opacity:1"
         id="path911" />
      <path
         d="m 116.53219,104.71835 z m 9.0367,0 h -2.63214 l -1.41584,-1.68191 h -3.02174 v 1.68191 h -1.96698 v -3.24979 h 5.53035 q 0.45611,0 0.76969,-0.19005 0.31357,-0.19005 0.31357,-0.52263 0,-0.37059 -0.28506,-0.55113 -0.28507,-0.19005 -0.7982,-0.19005 h -5.53035 l 1.28282,-1.6534 h 4.08599 q 0.54163,0 1.12127,0.104525 0.57965,0.09502 1.05476,0.351586 0.47512,0.256562 0.77919,0.693669 0.31358,0.437106 0.31358,1.12127 0,0.37059 -0.11403,0.70317 -0.11403,0.33258 -0.33258,0.59865 -0.20905,0.26606 -0.52263,0.45611 -0.30407,0.18054 -0.69367,0.25656 0.16154,0.12353 0.36109,0.31358 0.19955,0.19005 0.53213,0.52263 z"
         style="font-style:normal;font-variant:normal;font-weight:normal;font-stretch:normal;font-size:9.50231361px;line-height:1;font-family:Ethnocentric;-inkscape-font-specification:'Ethnocentric, Normal';font-variant-ligatures:normal;font-variant-caps:normal;font-variant-numeric:normal;font-feature-settings:normal;text-align:center;writing-mode:lr-tb;text-anchor:middle;stroke-width:0.1;stroke-miterlimit:4;stroke-dasharray:none;fill:none;stroke:#000000;stroke-opacity:1"
         id="path913" />
      <path
         d="m 125.85396,104.71835 z m 4.12401,-3.97197 h 4.06699 v 3.97197 h -4.36157 q -0.8267,0 -1.52987,-0.24706 -0.70317,-0.24706 -1.21629,-0.67467 -0.50363,-0.4371 -0.7982,-1.02625 -0.28507,-0.59864 -0.28507,-1.29231 0,-0.69367 0.28507,-1.26381 0.29457,-0.57964 0.7982,-0.98824 0.51312,-0.418102 1.21629,-0.636655 0.70317,-0.228055 1.52987,-0.228055 h 4.55161 l -1.27331,1.6534 h -3.2783 q -0.39909,0 -0.74118,0.11403 -0.34208,0.11403 -0.59864,0.32308 -0.24706,0.20905 -0.3896,0.49412 -0.14253,0.27557 -0.14253,0.61765 0,0.34208 0.13303,0.62715 0.14254,0.27557 0.3896,0.47512 0.25656,0.19955 0.59864,0.31357 0.34209,0.10453 0.75068,0.10453 h 2.40409 v -0.92172 h -3.2878 z"
         style="font-style:normal;font-variant:normal;font-weight:normal;font-stretch:normal;font-size:9.50231361px;line-height:1;font-family:Ethnocentric;-inkscape-font-specification:'Ethnocentric, Normal';font-variant-ligatures:normal;font-variant-caps:normal;font-variant-numeric:normal;font-feature-settings:normal;text-align:center;writing-mode:lr-tb;text-anchor:middle;stroke-width:0.1;stroke-miterlimit:4;stroke-dasharray:none;fill:none;stroke:#000000;stroke-opacity:1"
         id="path915" />
      <path
         d="m 135.18464,104.71835 z m 7.71588,0 h -1.95748 v -2.4516 h -3.78192 v 2.4516 h -1.97648 V 98.3613 h 1.97648 v 2.25205 h 3.78192 V 98.3613 h 1.95748 z"
         style="font-style:normal;font-variant:normal;font-weight:normal;font-stretch:normal;font-size:9.50231361px;line-height:1;font-family:Ethnocentric;-inkscape-font-specification:'Ethnocentric, Normal';font-variant-ligatures:normal;font-variant-caps:normal;font-variant-numeric:normal;font-feature-settings:normal;text-align:center;writing-mode:lr-tb;text-anchor:middle;stroke-width:0.1;stroke-miterlimit:4;stroke-dasharray:none;fill:none;stroke:#000000;stroke-opacity:1"
         id="path917" />
      <path
         d="m 91.222558,107.86361 h 3.724907 q 0.722176,0 1.235301,0.14254 0.522627,0.14253 0.845706,0.3991 0.332581,0.25656 0.484618,0.62715 0.161539,0.36109 0.161539,0.80769 0,0.4086 -0.142535,0.75069 -0.142534,0.33258 -0.437106,0.57014 -0.294572,0.23755 -0.750683,0.37059 -0.446609,0.13303 -1.054757,0.13303 h -3.021735 q -0.342084,0 -0.513125,0.10452 -0.16154,0.10453 -0.16154,0.35159 v 0.46561 h 6.128993 l -1.263808,1.6344 h -6.765647 v -2.08101 q 0,-0.87421 0.608148,-1.30181 0.608148,-0.43711 1.776932,-0.43711 h 3.021736 q 0.342083,0 0.503623,-0.095 0.171041,-0.10453 0.171041,-0.35159 0,-0.24706 -0.171041,-0.34208 -0.16154,-0.095 -0.503623,-0.095 H 89.95875 Z"
         style="font-style:normal;font-variant:normal;font-weight:normal;font-stretch:normal;font-size:9.50231361px;line-height:1;font-family:Ethnocentric;-inkscape-font-specification:'Ethnocentric, Normal';font-variant-ligatures:normal;font-variant-caps:normal;font-variant-numeric:normal;font-feature-settings:normal;text-align:center;writing-mode:lr-tb;text-anchor:middle;stroke-width:0.1;stroke-miterlimit:4;stroke-dasharray:none;fill:none;stroke:#000000;stroke-opacity:1"
         id="path919" />
      <path
         d="m 102.58302,107.75909 q 2.02399,0 3.04074,0.78869 1.01675,0.78869 1.01675,2.48961 0,1.71041 -1.01675,2.4991 -1.00725,0.7887 -3.04074,0.7887 -2.0335,0 -3.050243,-0.7887 -1.007245,-0.78869 -1.007245,-2.4991 0,-1.70092 1.016747,-2.48961 1.016751,-0.78869 3.040741,-0.78869 z m 0,4.91269 q 0.57964,0 0.98824,-0.057 0.4086,-0.0665 0.65566,-0.24706 0.24706,-0.18054 0.36109,-0.49412 0.11403,-0.32308 0.11403,-0.8362 0,-0.51313 -0.11403,-0.82671 -0.11403,-0.32307 -0.36109,-0.49412 -0.24706,-0.18054 -0.65566,-0.23755 -0.4086,-0.0665 -0.98824,-0.0665 -0.58914,0 -0.99774,0.0665 -0.3991,0.057 -0.64616,0.23755 -0.24706,0.17105 -0.36109,0.49412 -0.11403,0.31358 -0.11403,0.82671 0,0.51312 0.11403,0.8362 0.11403,0.31358 0.36109,0.49412 0.24706,0.18054 0.64616,0.24706 0.4086,0.057 0.99774,0.057 z"
         style="font-style:normal;font-variant:normal;font-weight:normal;font-stretch:normal;font-size:9.50231361px;line-height:1;font-family:Ethnocentric;-inkscape-font-specification:'Ethnocentric, Normal';font-variant-ligatures:normal;font-variant-caps:normal;font-variant-numeric:normal;font-feature-settings:normal;text-align:center;writing-mode:lr-tb;text-anchor:middle;stroke-width:0.1;stroke-miterlimit:4;stroke-dasharray:none;fill:none;stroke:#000000;stroke-opacity:1"
         id="path921" />
      <path
         d="m 108.33667,107.86361 h 2.32807 v 6.35705 h -1.96698 v -4.70364 h -1.54888 z"
         style="font-style:normal;font-variant:normal;font-weight:normal;font-stretch:normal;font-size:9.50231361px;line-height:1;font-family:Ethnocentric;-inkscape-font-specification:'Ethnocentric, Normal';font-variant-ligatures:normal;font-variant-caps:normal;font-variant-numeric:normal;font-feature-settings:normal;text-align:center;writing-mode:lr-tb;text-anchor:middle;stroke-width:0.1;stroke-miterlimit:4;stroke-dasharray:none;fill:none;stroke:#000000;stroke-opacity:1"
         id="path923" />
      <path
         d="m 116.35959,112.58626 q 0.64616,0 1.06426,-0.30407 0.42761,-0.31358 0.63666,-0.74118 -0.17105,0.0285 -0.3896,0.057 -0.20905,0.019 -0.62715,0.0475 -0.4086,0.019 -1.12127,0.0285 -0.71268,0.009 -1.88146,0.009 -1.08327,0 -1.72942,-0.44661 -0.64616,-0.4466 -0.64616,-1.31131 0,-0.65566 0.33258,-1.07377 0.33258,-0.4181 0.88372,-0.65566 0.55113,-0.24706 1.2638,-0.34208 0.72218,-0.095 1.49187,-0.095 2.20453,0 3.32581,0.77919 1.13077,0.76969 1.13077,2.36607 0,0.76969 -0.29457,1.38734 -0.28507,0.61765 -0.79819,1.04526 -0.50363,0.4276 -1.2068,0.65566 -0.70317,0.22805 -1.52987,0.22805 h -4.00998 l 1.27331,-1.6344 z m -2.16653,-2.16652 q 0.73168,0 1.25431,0 0.53213,-0.01 0.91222,-0.01 0.3896,-0.01 0.64616,-0.01 0.25656,-0.01 0.44661,-0.019 0.19004,-0.01 0.32308,-0.019 0.14253,-0.019 0.28507,-0.038 -0.076,-0.30407 -0.27557,-0.48462 -0.19005,-0.18054 -0.51313,-0.27556 -0.31357,-0.095 -0.76018,-0.12353 -0.43711,-0.0285 -0.98824,-0.0285 -0.61765,0 -1.00725,0.038 -0.38959,0.038 -0.60814,0.11403 -0.21856,0.0665 -0.30408,0.17104 -0.0855,0.10452 -0.0855,0.24706 0,0.43711 0.67466,0.43711 z"
         style="font-style:normal;font-variant:normal;font-weight:normal;font-stretch:normal;font-size:9.50231361px;line-height:1;font-family:Ethnocentric;-inkscape-font-specification:'Ethnocentric, Normal';font-variant-ligatures:normal;font-variant-caps:normal;font-variant-numeric:normal;font-feature-settings:normal;text-align:center;writing-mode:lr-tb;text-anchor:middle;stroke-width:0.1;stroke-miterlimit:4;stroke-dasharray:none;fill:none;stroke:#000000;stroke-opacity:1"
         id="path925" />
    </g>
    <g
       aria-label="3RD"
       transform="scale(1.0000183,0.99998166)"
       style="font-style:normal;font-variant:normal;font-weight:normal;font-stretch:normal;font-size:49.89156723px;line-height:0;font-family:'Agency FB';-inkscape-font-specification:'Agency FB';font-variant-ligatures:normal;font-variant-caps:normal;font-variant-numeric:normal;font-feature-settings:normal;text-align:start;letter-spacing:0px;word-spacing:0px;writing-mode:lr-tb;text-anchor:start;fill:none;fill-opacity:1;stroke:#000000;stroke-width:0.09999998;stroke-miterlimit:4;stroke-dasharray:none;stroke-opacity:1"
       id="text7701">
      <path
         d="m 133.21175,155.23957 q 0,1.19369 -0.7552,1.94888 -0.75519,0.7552 -1.94889,0.7552 h -9.81753 q -1.19369,0 -1.94889,-0.7552 -0.75519,-0.75519 -0.75519,-1.94888 v -9.67137 h 3.3862 v 9.37903 h 8.42894 v -11.66897 l -6.72367,-5.04275 v -0.7552 l 6.67495,-4.96967 v -9.69572 h -8.3315 v 8.57511 h -3.3862 v -8.86744 q 0,-1.1937 0.7552,-1.94889 0.75519,-0.7552 1.94889,-0.7552 h 9.72008 q 1.1937,0 1.94889,0.7552 0.7552,0.75519 0.7552,1.94889 v 9.28158 q 0,1.82708 -1.46167,2.85025 l -4.53117,3.19131 4.57989,3.1913 q 1.46167,0.99881 1.46167,2.89898 z"
         style="font-style:normal;font-variant:normal;font-weight:normal;font-stretch:normal;font-size:49.89156723px;font-family:'Agency FB';-inkscape-font-specification:'Agency FB';font-variant-ligatures:normal;font-variant-caps:normal;font-variant-numeric:normal;font-feature-settings:normal;text-align:start;writing-mode:lr-tb;text-anchor:start;stroke-width:0.09999998;stroke-miterlimit:4;stroke-dasharray:none;fill:none;stroke:#000000;stroke-opacity:1"
         id="path878" />
      <path
         d="m 142.61328,132.93658 h -1.2227 l -2.43703,-7.01798 0.15912,-0.23449 h 2.07692 v -4.82381 h -2.98976 v 12.07628 h -1.16408 v -13.10637 h 4.38833 q 0.41036,0 0.66997,0.25962 0.25962,0.25961 0.25962,0.66997 v 4.97456 q 0,0.94634 -1.27295,0.94634 -0.12562,0 -0.36849,-0.008 -0.24286,-0.0168 -0.35174,-0.0168 1.13059,3.13213 2.25279,6.28101 z"
         style="font-size:17.15133476px;baseline-shift:super;stroke-width:0.09999998;fill:none;stroke:#000000;stroke-opacity:1"
         id="path880" />
      <path
         d="m 149.77363,130.56655 q 0,1.03846 -0.68672,1.70843 -0.67835,0.6616 -1.71681,0.6616 h -2.99814 v -13.10637 h 2.99814 q 1.04683,0 1.72518,0.66998 0.67835,0.6616 0.67835,1.70006 z m -1.16408,-0.11725 v -8.14856 q 0,-0.64485 -0.41036,-1.03846 -0.40198,-0.40198 -1.04683,-0.40198 h -1.61632 v 11.04619 h 1.54932 q 0.67835,0 1.09708,-0.38523 0.42711,-0.39361 0.42711,-1.07196 z"
         style="font-size:17.15133476px;baseline-shift:super;stroke-width:0.09999998;fill:none;stroke:#000000;stroke-opacity:1"
         id="path882" />
    </g>
    <g
       id="g7856"
       inkscape:label="0"
       transform="matrix(0.26458333,0,0,0.26458333,55.471601,-40.079839)"
       style="stroke-width:3.77952766;stroke-miterlimit:4;stroke-dasharray:none">
      <path
         id="path7896"
         style="fill:none;stroke:#000000;stroke-width:0.37795275;stroke-linecap:butt;stroke-linejoin:miter;stroke-miterlimit:4;stroke-dasharray:none;stroke-opacity:1"
         d="m -3.8926812,960.25285 h 1.8700537 54.2064425 v 60.14345 H 317.61167 v -60.14345 h 56.07457 v -41.1219 C 252.0289,846.50602 281.01805,770.93716 281.01805,770.93716 l 99.61408,-0.0453 0.10765,-286.46863 c -0.40185,-5.87012 -9.20533,-3.52201 -12.28745,-5.1911 -5.59616,0.59139 -10.77954,1.3007 -16.46403,-0.91371 -6.82183,-3.9653 -7.3205,-17.87675 -14.68116,-20.03625 -8.48539,-1.08429 -5.63917,-9.4652 -12.84406,-10.95063 1.42452,-9.15753 -1.17947,-12.061 -10.00678,-10.43697 -3.49281,-1.34636 -8.36067,-3.814 -10.36378,-1.53988 -7.53235,-3.25264 -5.13247,-0.58608 -8.83244,5.50021 -1.41406,3.65737 -9.23737,-4.42376 -14.39711,-5.17869 -2.25956,3.693 -6.62249,4.61875 -8.56322,1.65236 -2.44866,3.59548 -11.96918,6.068 -15.11235,2.00079 -3.22621,-6.63724 -9.08533,1.36052 -11.488,-0.86109 -3.77897,-3.93616 -10.35928,2.27084 -14.54977,-1.68684 -4.66804,4.08631 -6.59632,-1.0258 -11.80121,-1.94693 -2.23375,3.41662 -1.23776,9.05246 -6.04985,8.87138 -4.45171,0.53652 -10.28937,4.43563 -13.93636,3.62673 -5.78395,4.30405 -7.30453,3.38847 -13.71032,5.70648 -7.04042,0.78833 -9.08871,6.11975 -15.83797,5.34959 -5.84257,0.20984 -9.50706,0.48914 -15.57498,1.64805 -6.33864,-1.09099 -15.13522,5.54245 -20.48633,0.64688 -3.03852,1.42846 -7.08779,2.21868 -7.38285,-2.8497 -2.12525,-4.07012 -7.23362,-4.1382 -10.35448,-0.69569 -4.29191,-2.13835 -8.61742,0.93116 -12.68435,2.04121 -5.323533,-0.18823 -3.958219,-16.74958 -5.923789,-4.19388 -1.326949,3.58292 -5.078594,9.33355 -6.5036,10.17492 -2.60348,-4.35431 -7.927017,-2.00925 -14.158972,-3.72472 -9.616581,3.12599 -4.623397,-5.20071 -12.109576,-3.71502 0.09784,6.2879 -5.497124,6.03713 -10.352888,5.33132 -4.472698,3.16625 -10.924671,2.75537 -15.027921,5.81168 -4.136999,-2.24642 -7.096281,-5.88615 -12.248922,-1.51377 -2.374065,2.82575 -4.918382,3.73482 -10.542161,3.99004 -2.126049,5.77688 -13.0497973,-4.42774 -13.2981283,8.37365 3e-5,1.33015 0.01184,3.00676 0.09313,4.70938 l 0.09137,286.46883 88.8815223,0.0212 c 0,0 48.640075,78.76338 -96.1236756,148.21783 z"
         inkscape:connector-curvature="0"
         sodipodi:nodetypes="ccccccccccccccccccccccccccccccccccccccccccccccc" />
    </g>
  </g>
</svg>
